#           dicom file      directory    Q   Type  X        Y     Xmin    Xmax    Ymin    Ymax
          IM-0003-2118-0001  M01/t3     0.44  0   1632.   1808.   1615.   1651.   1732.   1849.
          IM-0003-2118-0001  M01/t3     0.16  0   1939.   1455.   1866.   2023.   1326.   1608.
          IM-0003-4119-0001  M01/t3     4.47  0   2140.   1058.   2075.   2183.    974.   1093.
          IM-0003-4119-0001  M01/t3     0.60  0   2109.    829.   2048.   2156.    776.    863.
          IM-0004-1055-0001  M02/t3     8.23  1   2308.   1699.   2291.   2324.   1673.   1726.
          IM-0004-1055-0001  M02/t3     0.12  0   2377.   2140.   2333.   2424.   2082.   2207.
          IM-0004-3056-0001  M02/t3     0.20  0   2336.   1816.   2292.   2379.   1749.   1887.
   IM-0007--1914443936-0001  M04/t3     0.50  0   2260.   3021.   2223.   2316.   2963.   3071.
   IM-0007--1914443936-0001  M04/t3     0.35  0   2378.    689.   2358.   2395.    668.    719.
   IM-0007--1914443936-0001  M04/t3     0.16  0   1930.    761.   1883.   2001.    700.    799.
   IM-0007--1914443936-0001  M04/t3     0.10  1   2427.   3079.   2375.   2482.   3048.   3109.
   IM-0007--1914443936-0001  M04/t3     0.06  0   1654.   1478.   1621.   1716.   1440.   1534.
   IM-0007--1914443936-0001  M04/t3     0.00  0   2449.   2585.   2389.   2494.   2510.   2666.
   IM-0007--1914443936-0001  M04/t3     0.00  0   2335.   2815.   2226.   2391.   2726.   2898.
   IM-0007--1914443936-0001  M04/t3     0.00  0   1796.    947.   1729.   1882.    930.    966.
   IM-0007--1914443938-0001  M04/t3     0.57  0   2048.   2402.   2011.   2091.   2366.   2446.
   IM-0007--1914443938-0001  M04/t3     0.01  0   1661.   1747.   1585.   1709.   1693.   1854.
   IM-0007--1914443938-0001  M04/t3     0.00  0   1603.   1366.   1542.   1660.   1338.   1389.
          IM-0009-1026-0001  M05/t3   107.54  2   2921.   2004.   2888.   2945.   1986.   2026.
          IM-0009-1026-0001  M05/t3     8.92  0   2639.   1373.   2609.   2659.   1352.   1400.
          IM-0009-2027-0001  M05/t3    41.42  0   1996.   2487.   1974.   2024.   2459.   2516.
          IM-0009-2027-0001  M05/t3    15.90  2   2978.   2188.   2904.   3057.   2079.   2272.
          IM-0009-2027-0001  M05/t3    11.28  0   3210.   3065.   3198.   3222.   3051.   3084.
          IM-0009-2027-0001  M05/t3     7.45  0   2527.   2791.   2500.   2570.   2758.   2817.
          IM-0009-2027-0001  M05/t3     4.20  2   2702.   2374.   2613.   2830.   2341.   2419.
          IM-0009-2027-0001  M05/t3     2.25  0   2834.   1035.   2777.   2868.   1014.   1064.
          IM-0009-2027-0001  M05/t3     1.11  0   2393.   1694.   2363.   2415.   1630.   1733.
          IM-0009-3028-0001  M05/t3   102.54  2   3137.   2058.   3078.   3183.   2030.   2088.
          IM-0009-3028-0001  M05/t3    38.87  0   1690.   1919.   1669.   1713.   1884.   1958.
          IM-0009-3028-0001  M05/t3    23.60  0   2913.   2529.   2902.   2926.   2519.   2540.
          IM-0009-3028-0001  M05/t3    23.11  2   2123.   2315.   2033.   2246.   2214.   2373.
          IM-0009-3028-0001  M05/t3    20.16  2   2738.   1639.   2658.   2801.   1510.   1758.
          IM-0009-3028-0001  M05/t3     9.77  0   1760.   2275.   1741.   1776.   2254.   2300.
          IM-0009-4029-0001  M05/t3     7.63  2   2541.   1237.   2516.   2565.   1217.   1259.
          IM-0010-1095-0001  M06/t3    30.10  0   2899.   1243.   2883.   2916.   1231.   1254.
          IM-0010-2096-0001  M06/t3    11.64  2   2522.   2010.   2436.   2599.   1934.   2062.
          IM-0010-2096-0001  M06/t3     0.54  0   1739.   1975.   1719.   1757.   1950.   1990.
          IM-0010-3098-0001  M06/t3     6.99  0   2977.   2364.   2959.   2994.   2355.   2373.
          IM-0010-3098-0001  M06/t3     0.44  0   2565.   2143.   2520.   2609.   2060.   2232.
          IM-0010-3098-0001  M06/t3     0.02  0   1741.   1421.   1712.   1770.   1373.   1490.
          IM-0010-3098-0001  M06/t3     0.02  0   2987.   1480.   2950.   3033.   1445.   1517.
          IM-0010-4097-0001  M06/t3     0.75  1   2494.   1423.   2451.   2555.   1374.   1496.
          IM-0010-4097-0001  M06/t3     0.30  0   2869.   2095.   2784.   2930.   2018.   2121.
          IM-0012-1017-0001  M07/t3     1.10  0   1703.   2108.   1663.   1729.   2084.   2159.
          IM-0012-2018-0001  M07/t3     0.69  0   1660.   2494.   1620.   1717.   2450.   2519.
          IM-0012-3020-0001  M07/t3     0.37  0   1620.   1265.   1570.   1653.   1219.   1318.
          IM-0012-3020-0001  M07/t3     0.30  0   1924.   1539.   1887.   1973.   1505.   1574.
          IM-0012-4019-0001  M07/t3     4.12  0   1960.   1181.   1942.   1981.   1166.   1193.
          IM-0012-4019-0001  M07/t3     0.12  0   2335.    978.   2271.   2388.    934.   1024.
          IM-0012-4019-0001  M07/t3     0.03  0   1573.    996.   1530.   1610.    877.   1110.
          IM-0013-1083-0001  M08/t3     1.19  0   1352.   1434.   1243.   1450.   1346.   1527.
          IM-0013-1083-0001  M08/t3     0.78  0   1310.   1861.   1284.   1339.   1826.   1891.
          IM-0013-1083-0001  M08/t3     0.76  0   2298.   2781.   2266.   2326.   2770.   2793.
          IM-0013-1083-0001  M08/t3     0.33  0   1559.   1104.   1517.   1605.   1055.   1166.
          IM-0013-2084-0001  M08/t3     0.94  0   1241.   1586.   1187.   1284.   1555.   1616.
          IM-0013-2084-0001  M08/t3     0.25  0   1339.   2252.   1282.   1390.   2176.   2330.
          IM-0013-3086-0001  M08/t3     0.88  0   1463.    688.   1396.   1517.    659.    738.
          IM-0013-4085-0001  M08/t3     4.39  0   1221.    632.   1159.   1329.    536.    774.
          IM-0013-4085-0001  M08/t3     0.06  0    880.   1006.    807.    950.    932.   1055.
          IM-0013-4085-0001  M08/t3     0.02  0   1764.   1368.   1700.   1823.   1320.   1398.
          IM-0014-2065-0001  M09/t3    49.48  0   3002.   1076.   2906.   3086.   1035.   1106.
          IM-0014-2065-0001  M09/t3     5.36  0   2365.   1940.   2330.   2435.   1909.   2002.
          IM-0014-4066-0001  M09/t3    26.64  0   3047.   2094.   3025.   3068.   2085.   2102.
          IM-0014-4066-0001  M09/t3     9.78  0   2146.   2334.   2122.   2175.   2309.   2349.
          IM-0014-4066-0001  M09/t3     0.74  0   1272.   1770.   1244.   1298.   1731.   1825.
          IM-0014-4066-0001  M09/t3     0.15  0   2253.   3721.   2187.   2339.   3691.   3776.
          IM-0015-1053-0001  M10/t3     1.56  0   1886.   1580.   1812.   1933.   1485.   1657.
          IM-0015-2054-0001  M10/t3     0.26  0   2420.    776.   2363.   2478.    725.    810.
          IM-0015-2054-0001  M10/t3     0.09  0   2027.   2056.   1991.   2066.   1982.   2093.
          IM-0015-3057-0001  M10/t3     0.24  0   2192.   1520.   2139.   2235.   1498.   1551.
          IM-0015-3057-0001  M10/t3     0.06  0   2157.   1235.   2143.   2168.   1218.   1250.
          IM-0015-3057-0001  M10/t3     0.02  0   1596.   1127.   1580.   1610.   1069.   1182.
          IM-0015-4056-0001  M10/t3     0.32  2   2147.   1841.   2122.   2195.   1796.   1878.
          IM-0015-5055-0001  M10/t3     0.21  0   1854.   1238.   1810.   1905.   1205.   1266.
          IM-0017-1088-0001  M11/t3     0.10  0   2023.   2219.   1970.   2078.   2173.   2254.
          IM-0017-3091-0001  M11/t3     0.39  0   2324.    599.   2274.   2363.    542.    672.
          IM-0017-3091-0001  M11/t3     0.23  0   1576.   1226.   1530.   1602.   1119.   1303.
          IM-0017-3091-0001  M11/t3     0.22  0   2179.   1516.   2086.   2263.   1488.   1534.
          IM-0017-3091-0001  M11/t3     0.18  0   2149.    584.   2128.   2175.    526.    619.
          IM-0017-3091-0001  M11/t3     0.06  0   1758.   1838.   1728.   1789.   1789.   1876.
          IM-0020-1059-0001  M12/t3     1.52  0   2357.   2610.   2289.   2416.   2521.   2654.
          IM-0020-1059-0001  M12/t3     0.24  0   3028.   2838.   2937.   3126.   2818.   2862.
          IM-0020-2060-0001  M12/t3     1.79  0   2482.   1299.   2461.   2510.   1255.   1391.
          IM-0020-2060-0001  M12/t3     0.28  0   2148.   1870.   2067.   2236.   1836.   1943.
          IM-0020-2060-0001  M12/t3     0.10  0   3015.   2131.   2960.   3058.   2049.   2214.
          IM-0020-3062-0001  M12/t3     0.84  1   1996.   2383.   1954.   2032.   2353.   2409.
          IM-0020-4061-0001  M12/t3     7.19  0   2956.   1563.   2916.   2983.   1546.   1591.
          IM-0020-4061-0001  M12/t3     0.34  0   2363.   1522.   2321.   2398.   1440.   1598.
          IM-0029-4033-0001  M13/t3     2.91  0   2213.   1036.   2160.   2271.    964.   1098.
          IM-0029-4033-0001  M13/t3     1.87  0   2274.   2919.   2205.   2319.   2875.   2948.
          IM-0029-4033-0001  M13/t3     0.89  0   2334.   1784.   2283.   2379.   1657.   1894.
          IM-0029-4033-0001  M13/t3     0.58  0   2341.    786.   2260.   2397.    728.    853.
          IM-0029-4033-0001  M13/t3     0.12  0   1692.   1196.   1627.   1748.   1185.   1211.
          IM-0035-2101-0001  M14/t3    11.99  0   2097.   1823.   2044.   2132.   1785.   1864.
          IM-0035-2101-0001  M14/t3     8.59  0   2316.   1900.   2249.   2426.   1844.   1969.
          IM-0035-2101-0001  M14/t3     0.03  0   2009.   1528.   1954.   2069.   1476.   1562.
          IM-0035-4102-0001  M14/t3     6.32  0   2117.   1512.   2060.   2146.   1452.   1581.
          IM-0035-4102-0001  M14/t3     3.70  0   2192.    966.   2130.   2223.    914.   1006.
          IM-0035-4102-0001  M14/t3     2.30  0   2050.   1122.   2018.   2075.   1054.   1195.
          IM-0035-4102-0001  M14/t3     1.79  0   2225.   1256.   2137.   2324.   1111.   1438.
          IM-0035-4102-0001  M14/t3     0.95  0   1920.   1458.   1861.   1972.   1379.   1504.
          IM-0035-4102-0001  M14/t3     0.85  0   2112.   1773.   2057.   2151.   1737.   1810.
          IM-0035-4102-0001  M14/t3     0.41  0   2431.    824.   2395.   2455.    764.    889.
          IM-0011-1034-0001  M15/t3     9.30  1   2893.   1286.   2755.   3015.   1223.   1400.
          IM-0011-1034-0001  M15/t3     4.22  0   2426.   1674.   2411.   2439.   1651.   1695.
          IM-0011-1034-0001  M15/t3     3.22  0   3150.   1178.   3111.   3211.   1162.   1196.
          IM-0011-1034-0001  M15/t3     0.21  0   2471.   2021.   2418.   2519.   1943.   2069.
          IM-0011-4037-0001  M15/t3     9.51  0    397.   1285.    275.    466.   1219.   1347.
          IM-0011-4037-0001  M15/t3     0.43  0    695.   1991.    682.    708.   1939.   2064.
          IM-0001-1021-0001  M16/t3     7.40  0   2267.   1454.   2202.   2349.   1349.   1565.
          IM-0001-2022-0001  M16/t3     0.21  0   2413.   1302.   2388.   2453.   1219.   1358.
          IM-0001-4024-0001  M16/t3     1.85  0   2325.   1509.   2256.   2384.   1474.   1557.
          IM-0001-5025-0001  M16/t3     7.26  0   2307.   1324.   2254.   2397.   1244.   1442.
          IM-0001-5025-0001  M16/t3     0.41  0   2314.   1960.   2287.   2367.   1870.   2032.
          IM-0001-5025-0001  M16/t3     0.02  1   2269.   1701.   2233.   2306.   1644.   1762.
          IM-0002-1013-0001  M17/t3     8.14  0   1975.   2507.   1963.   1991.   2491.   2519.
          IM-0002-1013-0001  M17/t3     1.48  0   2731.   2349.   2625.   2838.   2313.   2381.
          IM-0002-1013-0001  M17/t3     0.01  0   2562.   1111.   2534.   2594.   1051.   1174.
          IM-0002-3016-0001  M17/t3     7.94  0   1007.   1357.    993.   1020.   1347.   1370.
          IM-0002-3016-0001  M17/t3     2.09  0   2192.   2364.   2125.   2260.   2312.   2418.
          IM-0005-1082-0001  M18/t3     7.44  0   3232.    860.   3190.   3259.    824.    886.
          IM-0005-1082-0001  M18/t3     0.33  0   3226.   1843.   3198.   3256.   1810.   1900.
          IM-0005-3085-0001  M18/t3     0.58  0   2756.   3304.   2698.   2826.   3268.   3339.
          IM-0005-4084-0001  M18/t3    15.65  0   2888.   3385.   2852.   2912.   3303.   3436.
          IM-0005-4084-0001  M18/t3     0.84  0   1691.   1731.   1666.   1723.   1672.   1785.
          IM-0005-5087-0001  M18/t3     1.15  0   3217.   3753.   3191.   3240.   3675.   3827.
          IM-0005-6086-0001  M18/t3     3.21  0   2509.   3379.   2482.   2560.   3368.   3388.
          IM-0005-6086-0001  M18/t3     0.02  0   3006.   3002.   2938.   3064.   2921.   3061.
          IM-0005-6086-0001  M18/t3     0.01  0   2669.   3068.   2636.   2729.   3014.   3108.
          IM-0008-1012-0001  M19/t3     0.27  0   2060.   1266.   2045.   2076.   1240.   1289.
          IM-0008-2013-0001  M19/t3   220.25  1   3120.   2751.   3030.   3252.   2734.   2772.
          IM-0008-2013-0001  M19/t3    26.09  1   2788.   2793.   2523.   3012.   2744.   2837.
          IM-0008-2013-0001  M19/t3     4.98  0   2926.   1287.   2849.   3009.   1219.   1366.
          IM-0008-2013-0001  M19/t3     0.41  0   2259.   2837.   2214.   2320.   2820.   2851.
          IM-0008-2013-0001  M19/t3     0.05  0   2105.   2156.   2074.   2155.   2127.   2180.
          IM-0008-3014-0001  M19/t3   212.25  1   2268.   2536.   2094.   2432.   2404.   2636.
          IM-0008-3014-0001  M19/t3   118.32  1   2568.   2734.   2412.   2720.   2606.   2873.
          IM-0008-3014-0001  M19/t3    63.15  0   2800.   2948.   2717.   2889.   2869.   3036.
          IM-0008-3014-0001  M19/t3    12.43  0   1713.   2259.   1646.   1776.   2196.   2305.
          IM-0008-3014-0001  M19/t3     3.61  0   2961.   2642.   2923.   2996.   2623.   2674.
          IM-0008-3014-0001  M19/t3     0.77  0   1773.   1596.   1763.   1785.   1551.   1650.
          IM-0008-3014-0001  M19/t3     0.16  0   1848.   1141.   1805.   1900.   1109.   1173.
          IM-0008-4015-0001  M19/t3    13.78  1   3055.   2301.   2938.   3225.   2282.   2333.
          IM-0008-4015-0001  M19/t3     7.02  1   2805.   2236.   2771.   2851.   2221.   2256.
          IM-0008-4015-0001  M19/t3     3.06  0   2355.   1921.   2322.   2447.   1819.   2004.
          IM-0008-4015-0001  M19/t3     2.53  0   2862.   2856.   2706.   2972.   2811.   2930.
          IM-0008-4015-0001  M19/t3     0.65  0   2601.   1379.   2564.   2654.   1346.   1400.
          IM-0008-4015-0001  M19/t3     0.49  0   2635.   1684.   2606.   2659.   1664.   1714.
          IM-0008-4015-0001  M19/t3     0.08  0   2768.   2487.   2738.   2801.   2421.   2566.
          IM-0008-5016-0001  M19/t3    10.57  0   3032.   1967.   2974.   3096.   1902.   2014.
          IM-0008-5016-0001  M19/t3     3.91  0   3216.   1855.   3182.   3256.   1805.   1912.
          IM-0008-5016-0001  M19/t3     1.43  1   2621.   1322.   2374.   3025.   1266.   1398.
          IM-0008-5016-0001  M19/t3     1.03  0   3204.   3192.   3117.   3264.   3161.   3272.
          IM-0008-5016-0001  M19/t3     0.95  1   1920.   1858.   1910.   1930.   1845.   1872.
          IM-0016-1045-0001  M20/t3     3.46  0   1991.   1835.   1916.   2057.   1770.   1957.
          IM-0016-1045-0001  M20/t3     1.59  0   2381.   1446.   2340.   2400.   1421.   1482.
          IM-0016-1045-0001  M20/t3     0.63  0   2394.    889.   2377.   2417.    856.    922.
          IM-0016-1045-0001  M20/t3     0.33  0   2310.   2045.   2176.   2427.   1931.   2115.
          IM-0016-1045-0001  M20/t3     0.06  0   2198.   1725.   2135.   2261.   1702.   1747.
          IM-0016-2046-0001  M20/t3     1.41  0   1810.   1560.   1782.   1855.   1500.   1621.
          IM-0016-2046-0001  M20/t3     0.54  1   2320.   1611.   2310.   2330.   1549.   1687.
          IM-0016-3047-0001  M20/t3     0.36  0   2128.   2061.   2115.   2140.   1985.   2117.
          IM-0016-3047-0001  M20/t3     0.04  0   2009.   2223.   1925.   2089.   2184.   2261.
          IM-0016-4048-0001  M20/t3     5.30  2   2351.   1897.   2261.   2436.   1800.   2002.
          IM-0016-4048-0001  M20/t3     2.60  0   1903.   1661.   1816.   1980.   1631.   1680.
          IM-0016-4048-0001  M20/t3     1.07  0   2311.   1306.   2282.   2333.   1279.   1346.
          IM-0016-4048-0001  M20/t3     0.82  0   2204.   1697.   2060.   2297.   1606.   1788.
          IM-0016-4048-0001  M20/t3     0.66  0   2309.   2719.   2231.   2368.   2602.   2820.
          IM-0016-4048-0001  M20/t3     0.46  0   1876.   1407.   1818.   1934.   1318.   1485.
          IM-0016-4048-0001  M20/t3     0.05  2   2221.   2138.   2154.   2262.   2087.   2187.
          IM-0016-5049-0001  M20/t3     9.34  0   1798.   1395.   1762.   1848.   1376.   1414.
          IM-0016-5049-0001  M20/t3     2.07  0   2335.   1968.   2263.   2423.   1861.   2091.
          IM-0016-5049-0001  M20/t3     1.47  0   2438.   1749.   2399.   2490.   1686.   1784.
          IM-0016-5049-0001  M20/t3     0.43  0   2408.   1399.   2317.   2463.   1266.   1490.
          IM-0016-5049-0001  M20/t3     0.10  0   2408.   2297.   2371.   2462.   2219.   2377.
          IM-0016-6050-0001  M20/t3     0.49  0   2338.   1075.   2257.   2392.    976.   1156.
          IM-0016-6050-0001  M20/t3     0.23  0   2089.   1133.   1970.   2194.   1047.   1254.
          IM-0016-6050-0001  M20/t3     0.18  0   2302.    330.   2236.   2362.    282.    372.
          IM-0016-6050-0001  M20/t3     0.18  0   2299.   1537.   2289.   2311.   1506.   1576.
          IM-0016-6050-0001  M20/t3     0.09  0   1991.   1364.   1967.   2009.   1337.   1398.
          IM-0016-6050-0001  M20/t3     0.09  0   1582.   1004.   1491.   1647.    914.   1101.
          IM-0016-6050-0001  M20/t3     0.09  0   1838.    650.   1760.   1950.    560.    778.
          IM-0016-6050-0001  M20/t3     0.08  0   2176.    931.   2146.   2209.    889.    962.
          IM-0016-6050-0001  M20/t3     0.08  0   1635.    733.   1558.   1721.    641.    780.
          IM-0018-2045-0001  M21/t3     0.01  2   2492.   1896.   2442.   2543.   1840.   1989.
          IM-0018-2045-0001  M21/t3     0.01  0   2027.   1185.   1963.   2061.   1159.   1221.
          IM-0018-4046-0001  M21/t3     6.62  0   1815.   2462.   1788.   1897.   2408.   2521.
          IM-0018-4046-0001  M21/t3     0.95  0   2413.   1654.   2358.   2473.   1597.   1737.
          IM-0018-4046-0001  M21/t3     0.22  0   2616.   1233.   2595.   2652.   1195.   1278.
          IM-0018-4046-0001  M21/t3     0.05  0   2798.   1257.   2751.   2839.   1200.   1319.
          IM-0019-3026-0001  M22/t3     0.38  0   2825.   2034.   2769.   2867.   2003.   2082.
          IM-0019-5027-0001  M22/t3     0.02  0   2646.   1519.   2564.   2742.   1479.   1544.
          IM-0019-6028-0001  M22/t3     7.83  1   2308.   3049.   2288.   2334.   3026.   3083.
          IM-0019-6028-0001  M22/t3     1.18  0   1920.   2492.   1859.   2003.   2393.   2583.
          IM-0019-6028-0001  M22/t3     1.03  1   1958.   1264.   1896.   2012.   1224.   1298.
          IM-0019-7029-0001  M22/t3     1.67  0   1779.    907.   1676.   1871.    789.    991.
          IM-0019-7029-0001  M22/t3     0.13  0   2406.   1816.   2344.   2477.   1792.   1840.
          IM-0019-7029-0001  M22/t3     0.00  0   2349.    401.   2323.   2380.    375.    419.
          IM-0021-1006-0001  M23/t3    67.13  1   2178.   2484.   2067.   2295.   2378.   2520.
          IM-0021-1006-0001  M23/t3    11.62  1   2339.   2666.   2325.   2361.   2586.   2753.
          IM-0021-1006-0001  M23/t3     7.07  0   1985.   1435.   1939.   2025.   1367.   1524.
          IM-0021-1006-0001  M23/t3     1.94  0   2912.   2997.   2835.   2982.   2921.   3081.
          IM-0021-1006-0001  M23/t3     1.42  1   2772.   2779.   2689.   2842.   2732.   2880.
          IM-0021-1006-0001  M23/t3     0.91  0   2550.   2706.   2507.   2588.   2626.   2752.
          IM-0021-2007-0001  M23/t3     3.27  0   2399.   1823.   2366.   2435.   1745.   1861.
          IM-0021-2007-0001  M23/t3     0.12  0   1769.   1839.   1704.   1834.   1789.   1880.
          IM-0021-2007-0001  M23/t3     0.11  0   3138.   2157.   3108.   3164.   2101.   2220.
          IM-0021-3008-0001  M23/t3     0.39  0   3159.   2259.   3108.   3193.   2199.   2295.
          IM-0021-3008-0001  M23/t3     0.30  0   2611.   1239.   2578.   2674.   1225.   1260.
          IM-0021-3008-0001  M23/t3     0.27  0   1992.   3775.   1963.   2027.   3730.   3839.
          IM-0021-3008-0001  M23/t3     0.10  0   1713.   1784.   1643.   1768.   1747.   1813.
          IM-0021-4010-0001  M23/t3    14.59  0   1967.   2003.   1952.   1992.   1896.   2072.
          IM-0021-4010-0001  M23/t3     4.09  1   1927.   2317.   1889.   1967.   2249.   2415.
          IM-0021-4010-0001  M23/t3     2.25  0   2115.   3608.   2089.   2150.   3543.   3674.
          IM-0021-4010-0001  M23/t3     0.77  0   2021.   2833.   1997.   2055.   2772.   2938.
          IM-0062-1027-0001  M23/t3    31.99  1   1517.   2393.   1472.   1563.   2361.   2409.
          IM-0062-1027-0001  M23/t3     8.74  0   1678.   2561.   1659.   1702.   2476.   2628.
          IM-0062-1027-0001  M23/t3     3.04  0   2126.   2593.   2059.   2200.   2574.   2611.
          IM-0062-1027-0001  M23/t3     1.50  0   2240.   2771.   2217.   2268.   2726.   2815.
          IM-0062-1027-0001  M23/t3     0.15  1   2382.   2883.   2348.   2425.   2862.   2909.
          IM-0062-2028-0001  M23/t3     1.56  0   1622.   2030.   1583.   1646.   1983.   2090.
          IM-0062-2028-0001  M23/t3     0.95  0   1193.   1526.   1126.   1260.   1509.   1553.
          IM-0062-2028-0001  M23/t3     0.52  0   1792.   2001.   1746.   1861.   1952.   2080.
          IM-0062-2028-0001  M23/t3     0.34  0    994.   1682.    958.   1048.   1635.   1720.
          IM-0062-3029-0001  M23/t3     4.57  0    900.   1350.    872.    920.   1327.   1365.
          IM-0062-4030-0001  M23/t3    25.54  1   1453.   1194.   1439.   1467.   1079.   1246.
          IM-0062-4030-0001  M23/t3     2.64  0   1641.   2649.   1555.   1667.   2589.   2680.
          IM-0062-4030-0001  M23/t3     2.16  0   1658.   2440.   1561.   1709.   2311.   2527.
          IM-0062-4030-0001  M23/t3     1.94  1   1444.   1498.   1408.   1480.   1389.   1580.
          IM-0062-4030-0001  M23/t3     1.16  0   2135.    534.   2080.   2169.    493.    592.
          IM-0062-4030-0001  M23/t3     0.05  0   1556.   2162.   1507.   1594.   2005.   2320.
          IM-0062-5031-0001  M23/t3     5.23  0   1102.    905.   1069.   1144.    874.    942.
          IM-0062-5031-0001  M23/t3     0.69  0   1381.    777.   1323.   1425.    764.    796.
          IM-0062-5031-0001  M23/t3     0.41  0   2125.    658.   2079.   2159.    605.    690.
          IM-0022-1108-0001  M24/t3     3.25  0   2619.   2236.   2557.   2716.   2162.   2367.
          IM-0022-3111-0001  M24/t3     8.29  0   2269.   2442.   2172.   2362.   2384.   2517.
          IM-0023-2034-0001  M25/t3    11.00  0   2265.   2360.   2236.   2314.   2295.   2461.
          IM-0023-2034-0001  M25/t3     0.48  0   2363.   1364.   2323.   2395.   1309.   1411.
          IM-0023-2034-0001  M25/t3     0.14  0   2426.   1133.   2390.   2492.   1107.   1160.
          IM-0023-2034-0001  M25/t3     0.00  0   2290.   2561.   2214.   2398.   2497.   2616.
          IM-0023-3035-0001  M25/t3     1.61  0   2249.   2381.   2147.   2305.   2354.   2400.
          IM-0023-3035-0001  M25/t3     0.23  0   2002.   1650.   1958.   2034.   1603.   1719.
          IM-0023-5038-0001  M25/t3     9.39  0   1956.   1846.   1926.   1982.   1816.   1874.
          IM-0023-5038-0001  M25/t3     0.07  0   2420.   2230.   2367.   2493.   2143.   2295.
          IM-0023-5038-0001  M25/t3     0.04  0   2216.   2033.   2176.   2245.   2009.   2052.
          IM-0028-1050-0001  M26/t3     8.39  2   1827.   1456.   1736.   1944.   1374.   1536.
          IM-0028-1050-0001  M26/t3     5.35  0   1851.   2066.   1841.   1865.   2054.   2081.
          IM-0028-1050-0001  M26/t3     1.62  0   1882.   1225.   1808.   1952.   1159.   1307.
          IM-0028-1050-0001  M26/t3     0.96  0   1907.   1740.   1844.   1956.   1710.   1803.
          IM-0028-1050-0001  M26/t3     0.47  0   2189.   1628.   2155.   2231.   1573.   1708.
          IM-0028-1050-0001  M26/t3     0.24  1   1751.   1681.   1734.   1777.   1626.   1714.
          IM-0028-2051-0001  M26/t3     2.18  0   2022.   1778.   1997.   2041.   1669.   1833.
          IM-0028-2051-0001  M26/t3     1.59  0   2162.   1159.   2081.   2273.   1013.   1292.
          IM-0028-2051-0001  M26/t3     1.00  2   2296.   1430.   2231.   2354.   1286.   1581.
          IM-0028-2051-0001  M26/t3     0.96  0   2099.   1996.   2041.   2187.   1920.   2049.
          IM-0028-2051-0001  M26/t3     0.79  0   2095.   1378.   2011.   2131.   1327.   1421.
          IM-0028-2051-0001  M26/t3     0.08  0   2360.   1784.   2314.   2416.   1742.   1821.
          IM-0028-2051-0001  M26/t3     0.07  0   1799.   1419.   1759.   1838.   1364.   1472.
          IM-0028-2051-0001  M26/t3     0.01  2   1861.   1646.   1796.   1933.   1602.   1741.
          IM-0028-2051-0001  M26/t3     0.01  2   2364.   1005.   2309.   2446.    988.   1037.
          IM-0028-3052-0001  M26/t3    10.38  2   2204.    994.   2116.   2319.    895.   1075.
          IM-0028-3052-0001  M26/t3     5.24  2   2441.    923.   2410.   2484.    861.   1019.
          IM-0028-3052-0001  M26/t3     3.48  0   1846.   1035.   1814.   1905.    991.   1084.
          IM-0028-3052-0001  M26/t3     2.47  0   2113.   2563.   2077.   2194.   2490.   2633.
          IM-0028-3052-0001  M26/t3     1.76  0   1894.   1682.   1783.   1987.   1559.   1798.
          IM-0028-3052-0001  M26/t3     1.55  2   2253.   1203.   2091.   2452.   1103.   1260.
          IM-0028-3052-0001  M26/t3     0.81  2   1880.   1239.   1789.   1914.   1194.   1282.
          IM-0028-3052-0001  M26/t3     0.77  0   1995.    953.   1978.   2012.    937.    979.
          IM-0028-3052-0001  M26/t3     0.34  0   2008.   2284.   1952.   2060.   2245.   2343.
          IM-0028-4053-0001  M26/t3    33.11  0   1634.   1496.   1595.   1685.   1425.   1559.
          IM-0028-4053-0001  M26/t3     1.99  0   1853.   1906.   1805.   1911.   1891.   1934.
          IM-0028-4053-0001  M26/t3     1.51  0   2191.   1503.   2157.   2233.   1418.   1563.
          IM-0028-4053-0001  M26/t3     1.28  2   2025.   1235.   1871.   2193.   1101.   1387.
          IM-0028-5054-0001  M26/t3     4.31  0   2172.   2325.   2052.   2273.   2227.   2452.
          IM-0028-5054-0001  M26/t3     1.67  2   2250.   1943.   2141.   2341.   1843.   2064.
          IM-0028-5054-0001  M26/t3     1.63  0   2169.   1577.   2052.   2270.   1460.   1705.
          IM-0028-5054-0001  M26/t3     0.98  2   2069.   1819.   2018.   2113.   1779.   1857.
          IM-0028-5054-0001  M26/t3     0.42  2   1982.   1943.   1920.   2044.   1909.   1959.
          IM-0033-1070-0001  M28/t3     1.05  0   2321.   2152.   2273.   2348.   2107.   2198.
          IM-0033-1070-0001  M28/t3     0.80  0   2419.   1312.   2369.   2490.   1260.   1356.
          IM-0033-1070-0001  M28/t3     0.59  0   2229.   1823.   2157.   2298.   1765.   1889.
          IM-0033-1070-0001  M28/t3     0.30  0   2138.   1656.   2059.   2224.   1609.   1708.
          IM-0033-1070-0001  M28/t3     0.13  0   2172.   2067.   2158.   2190.   2017.   2107.
          IM-0033-1070-0001  M28/t3     0.07  0   2454.   2224.   2413.   2476.   2198.   2279.
          IM-0033-2071-0001  M28/t3     6.49  0   2456.   2863.   2407.   2493.   2819.   2924.
          IM-0033-2071-0001  M28/t3     3.28  0   2446.   1581.   2420.   2481.   1554.   1608.
          IM-0033-2071-0001  M28/t3     2.99  0   2373.   2146.   2311.   2426.   2088.   2219.
          IM-0033-2071-0001  M28/t3     2.25  0   2455.   2285.   2413.   2490.   2258.   2307.
          IM-0033-2071-0001  M28/t3     1.51  0   2110.   2011.   2073.   2137.   1919.   2079.
          IM-0033-2071-0001  M28/t3     0.86  0   2295.   2705.   2236.   2329.   2661.   2760.
          IM-0033-2071-0001  M28/t3     0.64  0   1880.   1600.   1836.   1915.   1521.   1671.
          IM-0033-2071-0001  M28/t3     0.37  2   1987.   2226.   1913.   2062.   2107.   2365.
          IM-0033-4072-0001  M28/t3     6.16  0   2403.   1026.   2310.   2446.    954.   1143.
          IM-0033-4072-0001  M28/t3     3.49  0   2306.    762.   2183.   2460.    688.    843.
          IM-0033-4072-0001  M28/t3     0.72  0   2459.   1611.   2382.   2497.   1577.   1656.
          IM-0033-4072-0001  M28/t3     0.58  0   1857.   1681.   1830.   1898.   1649.   1731.
          IM-0033-4072-0001  M28/t3     0.29  0   1650.    882.   1608.   1701.    859.    911.
          IM-0033-4072-0001  M28/t3     0.02  0   1821.    579.   1775.   1899.    521.    641.
          IM-0033-4072-0001  M28/t3     0.01  0   2316.    404.   2231.   2394.    373.    436.
          IM-0033-5074-0001  M28/t3    10.67  0   2429.   1042.   2413.   2446.   1019.   1062.
          IM-0033-5074-0001  M28/t3     2.31  0   2295.   2170.   2230.   2407.   2062.   2278.
          IM-0033-5074-0001  M28/t3     1.11  0   1847.    729.   1837.   1859.    691.    752.
          IM-0033-5074-0001  M28/t3     0.60  0   2234.   1435.   2046.   2369.   1320.   1535.
          IM-0033-5074-0001  M28/t3     0.11  0   2124.    461.   2022.   2225.    437.    488.
          IM-0033-5074-0001  M28/t3     0.10  0   2013.    774.   1990.   2042.    734.    810.
          IM-0033-6075-0001  M28/t3    14.07  0   2450.   1722.   2423.   2477.   1586.   1876.
          IM-0033-6075-0001  M28/t3     8.90  0   2231.   1982.   2121.   2364.   1898.   2043.
          IM-0033-6075-0001  M28/t3     1.01  0   2201.   2726.   1918.   2322.   2530.   2990.
          IM-0033-6075-0001  M28/t3     0.21  0   2081.   2401.   2012.   2153.   2287.   2532.
          IM-0033-6075-0001  M28/t3     0.19  0   2247.   2177.   2235.   2257.   2157.   2192.
          IM-0033-6075-0001  M28/t3     0.18  0   2257.   2389.   2166.   2374.   2287.   2524.
          IM-0033-6075-0001  M28/t3     0.03  0   2388.   1477.   2349.   2425.   1416.   1541.
          IM-0036-2114-0001  M29/t3     3.69  0   2128.   2133.   2019.   2227.   2082.   2194.
          IM-0036-2114-0001  M29/t3     1.05  0   1804.   1594.   1738.   1872.   1539.   1629.
          IM-0036-2114-0001  M29/t3     0.93  0   2328.   1930.   2182.   2422.   1830.   2010.
          IM-0036-2114-0001  M29/t3     0.85  0   2422.   1703.   2370.   2475.   1623.   1759.
          IM-0036-2114-0001  M29/t3     0.76  0   1916.    945.   1894.   1934.    881.    985.
          IM-0036-2114-0001  M29/t3     0.72  0   2394.   1373.   2377.   2410.   1241.   1457.
          IM-0036-2114-0001  M29/t3     0.69  0   2095.   1772.   2039.   2134.   1715.   1840.
          IM-0036-2114-0001  M29/t3     0.14  0   2386.   2479.   2352.   2415.   2410.   2553.
          IM-0036-4115-0001  M29/t3     1.45  1   2299.   1636.   2236.   2345.   1591.   1670.
          IM-0036-4115-0001  M29/t3     0.39  1   1545.   1121.   1526.   1572.   1070.   1207.
          IM-0036-4115-0001  M29/t3     0.15  0   1672.    913.   1604.   1731.    859.    951.
          IM-0036-5116-0001  M29/t3     1.21  0   1542.   1690.   1487.   1597.   1657.   1728.
          IM-0036-5116-0001  M29/t3     0.32  0   1643.   1123.   1568.   1732.   1103.   1149.
          IM-0036-5116-0001  M29/t3     0.00  0   1927.   2483.   1887.   1978.   2420.   2526.
          IM-0037-1038-0001  M30/t3     1.07  0   2536.    780.   2486.   2578.    764.    803.
          IM-0037-3041-0001  M30/t3     0.08  0   2567.   1077.   2518.   2601.   1013.   1155.
          IM-0037-3041-0001  M30/t3     0.04  0    962.   2064.    926.   1021.   1999.   2107.
          IM-0038-1001-0001  M31/t3     0.53  0   1492.   2130.   1475.   1508.   2083.   2187.
          IM-0038-2002-0001  M31/t3     3.42  0   1508.   2213.   1496.   1524.   2186.   2238.
          IM-0038-4003-0001  M31/t3    20.45  0   1639.   2404.   1610.   1691.   2371.   2478.
          IM-0039-1110-0001  M32/t3     0.76  0   1936.   1080.   1925.   1947.   1027.   1125.
          IM-0039-1110-0001  M32/t3     0.14  0   2053.   2169.   2026.   2088.   2147.   2197.
          IM-0039-2111-0001  M32/t3     5.18  0   1927.   1593.   1880.   1954.   1542.   1653.
          IM-0039-2111-0001  M32/t3     3.36  0   1775.   1930.   1687.   1825.   1909.   1957.
          IM-0039-2111-0001  M32/t3     0.96  0   1716.   1617.   1674.   1787.   1563.   1688.
          IM-0039-2111-0001  M32/t3     0.11  0   2108.   1790.   2047.   2172.   1744.   1858.
          IM-0039-2111-0001  M32/t3     0.06  0   1853.   2093.   1776.   1923.   2050.   2131.
          IM-0039-3113-0001  M32/t3    12.31  0   1956.   1705.   1900.   2021.   1636.   1794.
          IM-0039-3113-0001  M32/t3     0.35  0   1735.   1499.   1643.   1836.   1466.   1534.
          IM-0039-3113-0001  M32/t3     0.34  0   2395.   1214.   2363.   2436.   1185.   1235.
          IM-0039-3113-0001  M32/t3     0.34  0   2076.   1134.   2017.   2145.   1108.   1169.
          IM-0039-3113-0001  M32/t3     0.11  0   1790.   1262.   1736.   1822.   1198.   1323.
          IM-0039-4112-0001  M32/t3    14.33  0   1587.   1240.   1497.   1720.   1198.   1345.
          IM-0039-4112-0001  M32/t3     8.39  0   1750.   1411.   1666.   1865.   1265.   1523.
          IM-0040-1046-0001  M33/t3    27.71  2   2008.   1545.   1980.   2081.   1498.   1582.
          IM-0040-1046-0001  M33/t3    24.62  1   1937.   1795.   1915.   1965.   1702.   1925.
          IM-0040-1046-0001  M33/t3     7.39  0   2430.   2218.   2365.   2481.   2168.   2264.
          IM-0040-1046-0001  M33/t3     4.59  0   2409.    972.   2367.   2454.    924.   1028.
          IM-0040-1046-0001  M33/t3     4.48  1   1989.   2203.   1909.   2111.   2076.   2306.
          IM-0040-1046-0001  M33/t3     3.48  0   2430.   2438.   2299.   2486.   2396.   2531.
          IM-0040-1046-0001  M33/t3     2.18  0   2193.   1451.   2142.   2261.   1395.   1498.
          IM-0040-1046-0001  M33/t3     0.28  2   2021.   1362.   1972.   2059.   1298.   1403.
          IM-0040-2047-0001  M33/t3   117.49  0   2433.   1510.   2385.   2490.   1481.   1535.
          IM-0040-2047-0001  M33/t3    18.67  1   2240.   2636.   2174.   2301.   2611.   2655.
          IM-0040-2047-0001  M33/t3     8.38  0   2429.   2636.   2374.   2484.   2604.   2677.
          IM-0040-2047-0001  M33/t3     7.87  2   1866.   1854.   1848.   1896.   1797.   1939.
          IM-0040-2047-0001  M33/t3     0.33  0   2244.   2078.   2186.   2276.   2001.   2147.
          IM-0040-2047-0001  M33/t3     0.06  0   2147.   1475.   2081.   2197.   1401.   1539.
          IM-0040-3049-0001  M33/t3    73.61  0   1716.   1674.   1667.   1815.   1648.   1707.
          IM-0040-3049-0001  M33/t3    10.22  0   2362.   2180.   2319.   2434.   2097.   2285.
          IM-0040-3049-0001  M33/t3     6.15  0   2140.   1674.   2109.   2176.   1599.   1763.
          IM-0040-3049-0001  M33/t3     4.56  0   2387.    755.   2368.   2422.    707.    838.
          IM-0040-3049-0001  M33/t3     3.16  0   2240.   1917.   2177.   2296.   1776.   2036.
          IM-0040-3049-0001  M33/t3     2.58  0   1893.   1764.   1797.   1973.   1639.   1946.
          IM-0040-3049-0001  M33/t3     1.78  0   2308.   1042.   2229.   2408.   1010.   1095.
          IM-0040-3049-0001  M33/t3     1.47  0   2058.   1500.   1986.   2091.   1455.   1550.
          IM-0040-3049-0001  M33/t3     0.71  0   1942.   1153.   1890.   1991.   1101.   1200.
          IM-0040-4048-0001  M33/t3    30.96  2   2170.   1779.   2106.   2247.   1716.   1843.
          IM-0040-4048-0001  M33/t3    20.04  1   2146.   1938.   2059.   2242.   1894.   1952.
          IM-0040-4048-0001  M33/t3     8.63  0   1755.   1224.   1689.   1802.   1152.   1267.
          IM-0040-4048-0001  M33/t3     5.97  0   2359.   2380.   2315.   2389.   2349.   2408.
          IM-0040-4048-0001  M33/t3     5.16  2   1974.   1588.   1864.   2100.   1486.   1702.
          IM-0040-4048-0001  M33/t3     3.89  0   1735.   1459.   1601.   1871.   1403.   1533.
          IM-0040-4048-0001  M33/t3     1.35  0   2037.   2139.   1995.   2072.   2101.   2203.
          IM-0040-4048-0001  M33/t3     1.22  0   1998.   1270.   1977.   2016.   1216.   1331.
          IM-0040-4048-0001  M33/t3     0.66  0   2267.   1099.   2204.   2331.   1064.   1146.
          IM-0044-1050-0001  M34/t3     0.25  0   2032.   2003.   1930.   2119.   1954.   2031.
          IM-0044-2051-0001  M34/t3   126.81  2   1566.   2120.   1531.   1600.   2094.   2144.
          IM-0044-2051-0001  M34/t3     0.20  0   1829.   1180.   1764.   1902.   1089.   1227.
          IM-0044-3052-0001  M34/t3   183.28  2   1364.   1503.   1334.   1395.   1471.   1541.
          IM-0044-3052-0001  M34/t3     2.08  0   2019.   1905.   1982.   2067.   1851.   1954.
          IM-0044-3052-0001  M34/t3     0.34  0   1638.   1919.   1582.   1675.   1880.   1960.
          IM-0044-4053-0001  M34/t3     7.25  0   1968.    590.   1934.   1996.    578.    604.
          IM-0044-4053-0001  M34/t3     1.44  0   2098.   1172.   2046.   2137.   1105.   1211.
          IM-0044-4053-0001  M34/t3     0.27  0   2436.    913.   2395.   2467.    871.    955.
          IM-0044-4053-0001  M34/t3     0.15  0   2371.   1299.   2343.   2395.   1247.   1353.
          IM-0046-1001-0001  M35/t3     1.87  0   1273.   1770.   1236.   1308.   1692.   1837.
          IM-0046-4003-0001  M35/t3     0.80  0   1977.   2847.   1909.   2045.   2794.   2904.
          IM-0046-4003-0001  M35/t3     0.01  0   1051.   1095.   1017.   1088.   1065.   1123.
          IM-0047-2092-0001  M36/t3     2.69  0   1670.   1524.   1641.   1690.   1491.   1576.
          IM-0047-2092-0001  M36/t3     0.13  2   1454.   1471.   1380.   1517.   1417.   1511.
          IM-0047-4093-0001  M36/t3    10.11  0   2424.   3011.   2331.   2478.   2974.   3073.
          IM-0047-4093-0001  M36/t3     2.43  0   1353.   1327.   1337.   1369.   1253.   1378.
          IM-0047-4093-0001  M36/t3     0.04  0   2064.   1335.   1959.   2159.   1318.   1356.
          IM-0047-4093-0001  M36/t3     0.00  2   1585.    829.   1547.   1634.    798.    867.
          IM-0049-4009-0001  M38/t3     0.00  2   1820.    974.   1776.   1849.    956.    989.
          IM-0049-5013-0001  M38/t3    18.38  0   2293.   2151.   2165.   2415.   2080.   2235.
          IM-0049-5013-0001  M38/t3     0.77  0   2273.    929.   2240.   2304.    876.    973.
          IM-0049-5013-0001  M38/t3     0.75  0   2257.   1191.   2217.   2315.   1177.   1209.
          IM-0049-5013-0001  M38/t3     0.71  2   2297.   1826.   2247.   2339.   1767.   1943.
          IM-0049-5013-0001  M38/t3     0.05  0   2282.   1506.   2229.   2331.   1485.   1534.
          IM-0049-7012-0001  M38/t3     0.26  2   2429.   1221.   2347.   2497.   1108.   1317.
          IM-0050-2096-0001  M39/t3     4.33  0   1914.   1473.   1883.   1944.   1435.   1516.
          IM-0050-4097-0001  M39/t3     3.05  0   1979.   1802.   1945.   2016.   1753.   1837.
          IM-0050-4097-0001  M39/t3     2.90  2   2475.   1049.   2449.   2492.   1029.   1072.
          IM-0050-4097-0001  M39/t3     1.83  0   2083.    708.   2055.   2110.    689.    723.
          IM-0050-4097-0001  M39/t3     0.91  0   2295.   1245.   2226.   2351.   1181.   1325.
          IM-0050-4097-0001  M39/t3     0.71  0   2035.   1384.   1984.   2094.   1321.   1431.
          IM-0050-4097-0001  M39/t3     0.14  0   2019.   1036.   1946.   2093.    998.   1063.
          IM-0050-5099-0001  M39/t3     0.02  0   2436.   2711.   2393.   2495.   2660.   2775.
          IM-0052-1060-0001  M41/t3     5.13  0   2170.   1770.   2041.   2239.   1674.   1871.
          IM-0052-2061-0001  M41/t3     3.11  0   2430.    270.   2399.   2471.    248.    295.
          IM-0052-2061-0001  M41/t3     0.27  0   1486.   2249.   1444.   1529.   2219.   2271.
          IM-0052-2061-0001  M41/t3     0.18  0   1659.   1663.   1631.   1698.   1603.   1740.
          IM-0052-2061-0001  M41/t3     0.04  0   1951.   1315.   1869.   2007.   1260.   1352.
          IM-0052-2061-0001  M41/t3     0.01  0   2118.   1603.   2073.   2176.   1545.   1651.
          IM-0052-4063-0001  M41/t3     0.35  0   1804.   2377.   1791.   1819.   2366.   2389.
          IM-0052-4063-0001  M41/t3     0.33  0   1617.   1557.   1540.   1689.   1519.   1596.
          IM-0055-1041-0001  M42/t3     3.42  0   2380.   1170.   2334.   2439.   1137.   1197.
          IM-0055-1041-0001  M42/t3     1.09  0   2378.    930.   2246.   2457.    806.   1024.
          IM-0055-1041-0001  M42/t3     0.91  0   1808.   1916.   1751.   1855.   1885.   1951.
          IM-0055-1041-0001  M42/t3     0.62  0   2390.   1454.   2319.   2450.   1394.   1547.
          IM-0055-1041-0001  M42/t3     0.06  0   1973.   1620.   1914.   2021.   1542.   1674.
          IM-0055-3044-0001  M42/t3     4.91  0   2415.   3070.   2309.   2469.   3001.   3101.
          IM-0055-3044-0001  M42/t3     1.71  0   1854.   1264.   1837.   1880.   1236.   1303.
          IM-0055-3044-0001  M42/t3     0.13  0   1705.   1815.   1629.   1786.   1785.   1854.
          IM-0055-3044-0001  M42/t3     0.07  0   1960.    795.   1919.   2002.    769.    818.
          IM-0055-4043-0001  M42/t3     1.08  0   1501.   1078.   1484.   1519.    998.   1150.
          IM-0055-4043-0001  M42/t3     0.06  0   1469.   1555.   1416.   1517.   1533.   1586.
          IM-0055-4043-0001  M42/t3     0.02  2   1612.    751.   1585.   1635.    673.    825.
          IM-0057-1038-0001  M43/t3    29.96  0   2241.   2152.   2111.   2368.   2117.   2188.
          IM-0057-1038-0001  M43/t3    16.12  0   2403.   1530.   2316.   2452.   1495.   1561.
          IM-0057-1038-0001  M43/t3    12.30  1   2060.    797.   1869.   2234.    733.    857.
          IM-0057-1038-0001  M43/t3    10.08  0   2427.    704.   2346.   2489.    634.    783.
          IM-0057-1038-0001  M43/t3     2.75  0   1458.   1859.   1326.   1572.   1750.   1935.
          IM-0057-1038-0001  M43/t3     1.52  0   1891.   1828.   1824.   1951.   1761.   1877.
          IM-0057-1038-0001  M43/t3     1.35  0   1879.   2123.   1813.   1960.   2050.   2169.
          IM-0057-1038-0001  M43/t3     1.33  0   2236.   1305.   2188.   2314.   1280.   1353.
          IM-0057-1038-0001  M43/t3     0.89  0   2137.   1936.   2026.   2235.   1897.   1965.
          IM-0057-3041-0001  M43/t3    57.61  0   1878.   1783.   1815.   1910.   1751.   1828.
          IM-0057-3041-0001  M43/t3    38.17  1   2049.    925.   1756.   2217.    844.    990.
          IM-0057-3041-0001  M43/t3    27.13  1   2428.   2233.   2332.   2497.   2194.   2272.
          IM-0057-3041-0001  M43/t3    15.75  0   1926.   1577.   1801.   2018.   1476.   1634.
          IM-0057-3041-0001  M43/t3    14.49  1   2411.   1075.   2304.   2496.   1026.   1125.
          IM-0057-3041-0001  M43/t3     8.39  1   2320.   1410.   2137.   2496.   1345.   1485.
          IM-0057-3041-0001  M43/t3     8.31  0   2150.   1137.   2076.   2219.   1085.   1173.
          IM-0057-3041-0001  M43/t3     3.02  0   1693.   1764.   1637.   1737.   1753.   1773.
          IM-0057-3041-0001  M43/t3     1.25  0   2332.   1546.   2296.   2399.   1508.   1572.
          IM-0058-1052-0001  M44/t3     3.78  0   2647.   1796.   2601.   2690.   1766.   1829.
          IM-0058-2053-0001  M44/t3     8.93  0   2955.   2891.   2928.   2981.   2878.   2907.
          IM-0058-3055-0001  M44/t3     5.72  2   2304.   2154.   2270.   2340.   2078.   2191.
          IM-0058-4054-0001  M44/t3    22.70  0   2663.   2520.   2586.   2699.   2467.   2546.
          IM-0058-5056-0001  M44/t3     0.10  2    615.    403.    554.    715.    343.    473.
          IM-0069-1005-0001  M48/t3     6.48  0   2819.   1637.   2777.   2868.   1595.   1671.
          IM-0069-1005-0001  M48/t3     0.49  0   2725.   1409.   2626.   2785.   1380.   1436.
          IM-0069-1005-0001  M48/t3     0.05  0   2847.   1923.   2798.   2908.   1877.   1966.
          IM-0069-2006-0001  M48/t3     4.50  1   3052.   2847.   3033.   3070.   2825.   2867.
          IM-0069-2006-0001  M48/t3     4.17  0   2601.   1883.   2581.   2624.   1862.   1905.
          IM-0069-2006-0001  M48/t3     3.88  0   3029.   1763.   2971.   3105.   1715.   1816.
          IM-0069-2006-0001  M48/t3     1.16  0   3039.   1072.   2966.   3128.   1059.   1091.
          IM-0069-2006-0001  M48/t3     0.01  0   2787.   1783.   2731.   2818.   1699.   1856.
          IM-0069-3008-0001  M48/t3     2.16  0   2858.   1786.   2810.   2885.   1711.   1877.
          IM-0069-3008-0001  M48/t3     0.54  0   2764.   1432.   2732.   2805.   1398.   1469.
          IM-0069-4007-0001  M48/t3     2.64  0   2519.   1641.   2508.   2532.   1615.   1672.
          IM-0069-4007-0001  M48/t3     0.99  0   2621.   1448.   2585.   2661.   1412.   1486.
          IM-0069-4007-0001  M48/t3     0.08  0   2506.   2383.   2468.   2563.   2286.   2457.
          IM-0069-4007-0001  M48/t3     0.03  0   2325.   1790.   2257.   2401.   1748.   1816.
          IM-0071-1047-0001  M49/t3    18.25  0   2376.   1091.   2319.   2470.    990.   1167.
          IM-0071-1047-0001  M49/t3     8.03  0   2320.   2007.   2215.   2405.   1986.   2031.
          IM-0071-1047-0001  M49/t3     7.08  0   2309.   1637.   2070.   2458.   1385.   1906.
          IM-0071-2048-0001  M49/t3   100.82  0   2400.   2134.   2318.   2483.   1999.   2306.
          IM-0071-2048-0001  M49/t3    19.04  0   2189.   1636.   2026.   2330.   1548.   1752.
          IM-0071-2048-0001  M49/t3     5.82  0   2383.   1794.   2301.   2492.   1645.   1939.
          IM-0071-3050-0001  M49/t3   118.44  0   2200.   1307.   2096.   2337.   1234.   1381.
          IM-0071-3050-0001  M49/t3    21.25  0   2407.   1031.   2362.   2457.   1004.   1059.
          IM-0071-3050-0001  M49/t3    20.22  0   2354.    737.   2286.   2409.    634.    895.
          IM-0071-3050-0001  M49/t3    11.03  0   1925.   1217.   1906.   1946.   1181.   1255.
          IM-0071-3050-0001  M49/t3     5.15  2   2183.   1097.   2017.   2404.    894.   1289.
          IM-0071-3050-0001  M49/t3     2.02  0   2308.    533.   2265.   2328.    478.    580.
          IM-0071-3050-0001  M49/t3     1.01  0   2003.    941.   1896.   2094.    834.   1040.
          IM-0071-4049-0001  M49/t3    34.11  0   1987.   1698.   1900.   2161.   1600.   1860.
          IM-0071-4049-0001  M49/t3    21.20  0   2195.   1217.   2122.   2249.   1106.   1295.
          IM-0071-4049-0001  M49/t3    16.02  0   2176.   1011.   2087.   2281.    910.   1125.
          IM-0071-4049-0001  M49/t3    13.39  0   2359.    754.   2303.   2433.    691.    818.
          IM-0071-4049-0001  M49/t3     3.96  0   1930.   1143.   1900.   1970.   1035.   1257.
          IM-0073-1036-0001  M50/t3     0.66  0   3006.   1011.   2952.   3042.    986.   1053.
          IM-0073-2037-0001  M50/t3     0.16  0   2660.   1858.   2605.   2737.   1829.   1886.
          IM-0073-3038-0001  M50/t3     0.06  0   2525.   1148.   2495.   2546.   1068.   1208.
          IM-0074-1060-0001  M51/t3     7.68  0   1918.   2267.   1894.   1951.   2198.   2319.
          IM-0074-1060-0001  M51/t3     1.32  0   1794.   1510.   1774.   1816.   1485.   1539.
          IM-0074-3063-0001  M51/t3     7.01  0   1958.   1501.   1927.   2004.   1481.   1518.
          IM-0074-3063-0001  M51/t3     0.09  0   1941.   1740.   1917.   1969.   1647.   1834.
          IM-0076-3003-0001  M52/t3     2.99  0   1939.   1107.   1928.   1949.   1094.   1117.
          IM-0076-4004-0001  M52/t3     5.88  0   1532.   1496.   1484.   1560.   1478.   1513.
          IM-0079-2097-0001  M53/t3     0.27  0   1644.   1345.   1614.   1682.   1276.   1407.
          IM-0079-4098-0001  M53/t3     0.98  0   1797.   1163.   1728.   1862.   1124.   1199.
          IM-0079-4098-0001  M53/t3     0.58  0   2218.    903.   2170.   2249.    850.    953.
          IM-0079-4098-0001  M53/t3     0.46  0   1585.    881.   1533.   1621.    810.    948.
          IM-0079-4098-0001  M53/t3     0.38  2   1620.    700.   1593.   1648.    678.    718.
          IM-0079-4098-0001  M53/t3     0.06  0   1908.   3058.   1855.   1959.   3010.   3089.
          IM-0081-3034-0001  M54/t3     0.05  0   2012.   2011.   1919.   2091.   1988.   2056.
          IM-0083-2048-0001  M56/t3    23.94  0   3057.   2351.   2976.   3135.   2324.   2374.
          IM-0083-3049-0001  M56/t3     2.05  0   2761.   1984.   2729.   2780.   1945.   2038.
          IM-0083-3049-0001  M56/t3     1.21  0   2843.   1352.   2760.   2919.   1332.   1377.
          IM-0084-1034-0001  M57/t3    12.66  0   2480.   1235.   2458.   2495.   1188.   1290.
          IM-0084-1034-0001  M57/t3     4.71  2   2294.   1399.   2242.   2376.   1327.   1508.
          IM-0084-1034-0001  M57/t3     0.72  0   1911.   1599.   1896.   1934.   1525.   1675.
          IM-0084-1034-0001  M57/t3     0.26  0   1784.   1704.   1741.   1889.   1658.   1742.
          IM-0084-1034-0001  M57/t3     0.03  2   1907.   1281.   1828.   1971.   1263.   1303.
          IM-0084-2035-0001  M57/t3     7.10  0   2298.   2545.   2280.   2329.   2466.   2573.
          IM-0084-2035-0001  M57/t3     1.85  0   1740.   1628.   1716.   1773.   1561.   1684.
          IM-0084-2035-0001  M57/t3     0.57  0   2414.   1962.   2342.   2492.   1910.   2020.
          IM-0084-2035-0001  M57/t3     0.01  2   2366.   1349.   2311.   2446.   1314.   1390.
          IM-0084-3037-0001  M57/t3    31.59  0   2233.   1844.   2176.   2275.   1804.   1863.
          IM-0084-3037-0001  M57/t3     5.41  0   2026.    823.   2006.   2056.    782.    880.
          IM-0084-3037-0001  M57/t3     4.64  2   2019.   1805.   1968.   2084.   1700.   1929.
          IM-0084-3037-0001  M57/t3     3.80  2   1972.   1443.   1843.   2130.   1266.   1585.
          IM-0084-3037-0001  M57/t3     2.84  2   2184.   1004.   2162.   2206.    980.   1042.
          IM-0084-4036-0001  M57/t3    23.76  0   1972.   2131.   1914.   2015.   2024.   2176.
          IM-0084-4036-0001  M57/t3     2.88  0   2279.   1635.   2189.   2362.   1553.   1672.
          IM-0084-4036-0001  M57/t3     2.61  0   2129.   2420.   2116.   2142.   2371.   2453.
          IM-0084-4036-0001  M57/t3     2.47  0   2127.   2832.   2096.   2162.   2760.   2892.
          IM-0084-4036-0001  M57/t3     0.35  0   1910.   1339.   1861.   1960.   1288.   1392.
          IM-0084-5038-0001  M57/t3    33.40  0   2140.   2088.   2114.   2176.   2072.   2106.
          IM-0084-5038-0001  M57/t3     3.12  2   1730.   1949.   1696.   1796.   1891.   2003.
          IM-0084-5038-0001  M57/t3     0.44  2   2436.   1090.   2391.   2469.   1067.   1125.
          IM-0084-5038-0001  M57/t3     0.00  0   1337.   2904.   1318.   1356.   2827.   2985.
          IM-0085-2105-0001  M58/t3     0.60  0   2230.   2975.   2171.   2324.   2947.   3017.
          IM-0088-1015-0001  M59/t3    65.17  0   2179.   2058.   2085.   2283.   1933.   2206.
          IM-0088-1015-0001  M59/t3    10.84  0   1922.   1973.   1894.   1959.   1840.   2126.
          IM-0088-1015-0001  M59/t3     8.08  0   2031.   1725.   1956.   2108.   1679.   1766.
          IM-0088-1015-0001  M59/t3     6.77  0   2380.   1377.   2288.   2487.   1350.   1415.
          IM-0088-1015-0001  M59/t3     6.11  0   2267.   1156.   2156.   2326.   1084.   1222.
          IM-0088-1015-0001  M59/t3     4.86  0   1983.   2445.   1841.   2151.   2320.   2522.
          IM-0088-1015-0001  M59/t3     3.56  0   2548.   1829.   2484.   2597.   1756.   1894.
          IM-0088-1015-0001  M59/t3     2.27  0   1976.   2203.   1918.   2047.   2096.   2268.
          IM-0088-1015-0001  M59/t3     1.00  0   2716.   1597.   2664.   2748.   1573.   1612.
          IM-0088-2016-0001  M59/t3     5.77  0   2394.   2351.   2318.   2448.   2231.   2424.
          IM-0088-2016-0001  M59/t3     4.82  0   2208.   2670.   2124.   2272.   2608.   2780.
          IM-0088-2016-0001  M59/t3     4.44  1   2173.   1235.   2099.   2231.   1207.   1258.
          IM-0088-2016-0001  M59/t3     3.79  0   2514.   1727.   2411.   2583.   1682.   1752.
          IM-0088-2016-0001  M59/t3     3.79  0   1897.   1859.   1845.   1954.   1778.   2001.
          IM-0088-2016-0001  M59/t3     2.86  0   1959.   2515.   1927.   2021.   2444.   2581.
          IM-0088-2016-0001  M59/t3     1.90  0   2005.   1962.   1991.   2017.   1940.   1987.
          IM-0088-2016-0001  M59/t3     1.52  0   2535.   2161.   2520.   2553.   2149.   2177.
          IM-0088-2016-0001  M59/t3     1.27  0   2508.   2829.   2483.   2535.   2781.   2892.
          IM-0088-3018-0001  M59/t3     8.69  0   2408.   1677.   2391.   2432.   1642.   1704.
          IM-0088-3018-0001  M59/t3     4.22  0   2153.   2054.   2022.   2298.   1954.   2185.
          IM-0088-3018-0001  M59/t3     1.88  0   1941.   2160.   1874.   2000.   1988.   2312.
          IM-0088-4019-0001  M59/t3   105.43  2   1922.   2108.   1846.   1980.   1944.   2324.
          IM-0088-4019-0001  M59/t3    12.96  0   1760.   1469.   1722.   1791.   1438.   1494.
          IM-0088-4019-0001  M59/t3     7.22  0   1718.   1837.   1558.   1874.   1629.   2021.
          IM-0088-4019-0001  M59/t3     2.87  0   2427.   1308.   2380.   2479.   1270.   1371.
          IM-0088-4019-0001  M59/t3     2.22  0   2885.    983.   2857.   2927.    970.   1002.
          IM-0088-4019-0001  M59/t3     2.19  0   2268.   1491.   2205.   2313.   1456.   1536.
          IM-0088-4019-0001  M59/t3     1.73  0   2013.   1866.   1916.   2079.   1675.   2114.
          IM-0088-5017-0001  M59/t3    11.92  0   2049.   1083.   2033.   2070.   1064.   1103.
          IM-0088-5017-0001  M59/t3     9.99  0   2363.   1954.   2321.   2411.   1864.   2015.
          IM-0088-5017-0001  M59/t3     7.50  0   2427.   1738.   2383.   2477.   1662.   1796.
          IM-0088-5017-0001  M59/t3     5.52  0   2026.   2150.   1967.   2080.   2085.   2207.
          IM-0088-5017-0001  M59/t3     0.61  0   2134.   1867.   2071.   2194.   1742.   2034.
          IM-0090-1021-0001  M60/t3     7.62  0   2570.   2308.   2533.   2613.   2292.   2328.
          IM-0090-1021-0001  M60/t3     3.00  0   2765.   1706.   2695.   2853.   1626.   1843.
          IM-0090-1021-0001  M60/t3     2.53  0   3138.   2679.   3037.   3187.   2624.   2735.
          IM-0090-1021-0001  M60/t3     1.32  0   2532.   1415.   2482.   2574.   1347.   1468.
          IM-0090-1021-0001  M60/t3     0.23  0   2764.   2027.   2663.   2885.   1857.   2191.
          IM-0090-1021-0001  M60/t3     0.23  0   3074.   2472.   3016.   3140.   2440.   2495.
          IM-0090-1021-0001  M60/t3     0.19  0   2729.   1358.   2702.   2763.   1302.   1419.
          IM-0090-1021-0001  M60/t3     0.07  0   2889.   2419.   2815.   2945.   2321.   2542.
          IM-0090-2022-0001  M60/t3     4.02  0   2662.   1932.   2588.   2730.   1878.   1968.
          IM-0090-2022-0001  M60/t3     2.88  0   2514.   2019.   2447.   2616.   1965.   2125.
          IM-0090-2022-0001  M60/t3     2.50  0   2897.   1964.   2851.   2962.   1952.   1978.
          IM-0090-2022-0001  M60/t3     2.05  0   2467.   1769.   2424.   2509.   1732.   1795.
          IM-0090-2022-0001  M60/t3     1.34  0   2947.   2490.   2889.   3035.   2417.   2542.
          IM-0090-2022-0001  M60/t3     1.16  0   2752.   2291.   2714.   2796.   2240.   2328.
          IM-0090-2022-0001  M60/t3     1.10  0   2889.   1712.   2819.   2949.   1689.   1738.
          IM-0090-2022-0001  M60/t3     0.09  0   3141.   2584.   3115.   3167.   2512.   2627.
          IM-0090-3024-0001  M60/t3     1.26  0   2436.   2193.   2385.   2482.   2123.   2305.
          IM-0090-3024-0001  M60/t3     0.98  0   2872.   1348.   2814.   2920.   1229.   1498.
          IM-0090-3024-0001  M60/t3     0.21  0   2696.   1718.   2650.   2747.   1646.   1800.
          IM-0090-3024-0001  M60/t3     0.14  0   2592.   2147.   2556.   2624.   2069.   2216.
          IM-0090-4023-0001  M60/t3     0.92  0   2672.   2375.   2638.   2699.   2346.   2431.
          IM-0090-4023-0001  M60/t3     0.68  0   2966.   1834.   2940.   2994.   1820.   1851.
          IM-0090-4023-0001  M60/t3     0.48  0   3069.   1344.   3007.   3145.   1262.   1401.
          IM-0090-4023-0001  M60/t3     0.38  0   2476.   2242.   2426.   2534.   2204.   2324.
          IM-0090-4023-0001  M60/t3     0.02  2   2690.   2211.   2628.   2735.   2159.   2255.
          IM-0096-1083-0001  M61/t3     0.95  2   2221.   2054.   2182.   2246.   1985.   2106.
          IM-0096-1083-0001  M61/t3     0.02  0   2292.   1656.   2247.   2335.   1575.   1724.
          IM-0096-2084-0001  M61/t3     7.39  0   2107.   1217.   2090.   2127.   1196.   1238.
          IM-0096-2084-0001  M61/t3     2.21  0   1855.   1583.   1822.   1914.   1494.   1708.
          IM-0096-2084-0001  M61/t3     0.55  0   2407.   2352.   2326.   2476.   2328.   2388.
          IM-0096-2084-0001  M61/t3     0.14  0   2352.   1575.   2294.   2432.   1555.   1603.
          IM-0096-2084-0001  M61/t3     0.12  0   2363.   2157.   2344.   2394.   2095.   2230.
          IM-0096-3086-0001  M61/t3     0.90  1   2208.    495.   2179.   2237.    458.    535.
          IM-0096-3086-0001  M61/t3     0.18  0   1951.    903.   1894.   2033.    715.   1089.
          IM-0096-4085-0001  M61/t3     9.64  0   2208.    632.   2182.   2248.    615.    651.
          IM-0096-4085-0001  M61/t3     6.10  0   2138.   2216.   2104.   2162.   2177.   2251.
          IM-0096-4085-0001  M61/t3     2.91  0   2236.   1654.   2223.   2246.   1610.   1719.
          IM-0096-4085-0001  M61/t3     2.57  0   1858.   1861.   1845.   1873.   1839.   1895.
          IM-0096-4085-0001  M61/t3     2.36  0   2122.   1508.   2092.   2163.   1485.   1524.
          IM-0096-4085-0001  M61/t3     1.21  0   2428.   1135.   2396.   2472.   1077.   1193.
          IM-0096-4085-0001  M61/t3     0.86  0   2369.    865.   2350.   2389.    802.    921.
          IM-0096-4085-0001  M61/t3     0.41  0   1851.   1443.   1785.   1933.   1382.   1498.
          IM-0096-4085-0001  M61/t3     0.25  0   2045.    706.   2003.   2095.    616.    763.
          IM-0097-2066-0001  M62/t3     8.40  0   1490.   1345.   1443.   1533.   1312.   1385.
          IM-0097-2066-0001  M62/t3     5.01  0   1896.    881.   1840.   1930.    844.    926.
          IM-0097-2066-0001  M62/t3     0.80  0   1470.   1672.   1397.   1499.   1590.   1759.
          IM-0097-4067-0001  M62/t3     1.90  0   1557.   1226.   1531.   1604.   1185.   1259.
          IM-0097-4067-0001  M62/t3     0.86  0   1613.    767.   1555.   1671.    695.    852.
          IM-0099-1082-0001  M63/t3     2.94  0   1642.   1817.   1560.   1680.   1797.   1840.
          IM-0099-1082-0001  M63/t3     2.67  0   2154.   1313.   2092.   2224.   1284.   1383.
          IM-0099-1082-0001  M63/t3     1.09  0   2005.   2742.   1917.   2052.   2730.   2755.
          IM-0099-1082-0001  M63/t3     0.29  0   1526.   1667.   1412.   1635.   1622.   1698.
          IM-0099-1082-0001  M63/t3     0.10  0   1666.   2121.   1609.   1722.   2085.   2164.
          IM-0099-1082-0001  M63/t3     0.08  0   1742.   2367.   1650.   1838.   2297.   2454.
          IM-0099-1082-0001  M63/t3     0.01  1   1614.   1472.   1579.   1651.   1377.   1572.
          IM-0099-2083-0001  M63/t3     3.66  2   1775.   2234.   1756.   1808.   2151.   2305.
          IM-0099-2083-0001  M63/t3     3.20  0   1572.   1507.   1433.   1688.   1409.   1685.
          IM-0099-2083-0001  M63/t3     2.35  0   1728.   2031.   1667.   1793.   1963.   2098.
          IM-0099-2083-0001  M63/t3     0.37  0   1814.   1412.   1795.   1830.   1342.   1482.
          IM-0099-3086-0001  M63/t3     5.92  0   1491.   1268.   1472.   1510.   1208.   1300.
          IM-0099-3086-0001  M63/t3     4.72  1   2258.   1708.   2214.   2307.   1683.   1737.
          IM-0099-3086-0001  M63/t3     3.10  0   2457.    822.   2441.   2482.    787.    853.
          IM-0099-3086-0001  M63/t3     2.30  0   1823.   1221.   1640.   1966.   1143.   1296.
          IM-0099-3086-0001  M63/t3     2.22  0   1632.   2363.   1594.   1673.   2290.   2436.
          IM-0099-3086-0001  M63/t3     0.58  1   1823.   2742.   1809.   1837.   2726.   2757.
          IM-0099-3086-0001  M63/t3     0.40  0   1526.   1701.   1482.   1554.   1621.   1815.
          IM-0099-3086-0001  M63/t3     0.40  1   1752.   2557.   1725.   1772.   2508.   2591.
          IM-0099-3086-0001  M63/t3     0.24  0   1501.   1916.   1490.   1513.   1835.   2011.
          IM-0099-4084-0001  M63/t3    12.91  0   2111.   2984.   2082.   2147.   2898.   3034.
          IM-0099-4084-0001  M63/t3     1.42  1   1873.   2698.   1783.   1974.   2593.   2807.
          IM-0099-4084-0001  M63/t3     1.41  0   1713.   1311.   1645.   1763.   1247.   1367.
          IM-0099-4084-0001  M63/t3     1.01  0   1643.   1606.   1600.   1693.   1432.   1770.
          IM-0099-4084-0001  M63/t3     0.78  0   1913.   1103.   1866.   1959.   1041.   1155.
          IM-0099-4084-0001  M63/t3     0.60  0   2138.   1121.   2076.   2202.   1058.   1166.
          IM-0099-5085-0001  M63/t3    16.30  1   1550.   1808.   1482.   1613.   1687.   1952.
          IM-0099-5085-0001  M63/t3     1.30  0   1852.   2898.   1824.   1878.   2859.   2936.
          IM-0099-5085-0001  M63/t3     1.14  0   1569.   1297.   1484.   1671.   1218.   1346.
          IM-0099-5085-0001  M63/t3     0.94  0   1549.   1454.   1523.   1578.   1420.   1482.
          IM-0099-5085-0001  M63/t3     0.28  0   1736.   1795.   1698.   1760.   1735.   1859.
          IM-0099-5085-0001  M63/t3     0.14  1   1695.   2644.   1685.   1705.   2632.   2656.
          IM-0099-5085-0001  M63/t3     0.05  1   1607.   2508.   1588.   1623.   2459.   2543.
          IM-0102-2046-0001  M64/t3     0.26  0   2546.   1710.   2533.   2561.   1701.   1719.
          IM-0102-4047-0001  M64/t3     0.65  1   1662.   1985.   1571.   1740.   1967.   2002.
          IM-0107-3056-0001  M65/t3     3.71  0   2139.   1536.   2108.   2164.   1511.   1589.
          IM-0107-3056-0001  M65/t3     0.13  0   2574.   1167.   2473.   2667.   1148.   1197.
          IM-0107-4055-0001  M65/t3     0.00  1   1876.   1588.   1840.   1923.   1513.   1648.
          IM-0109-1005-0001  M66/t3     5.89  0   2895.   3334.   2882.   2909.   3326.   3343.
          IM-0109-3008-0001  M66/t3     6.47  0   2345.   1145.   2334.   2356.   1126.   1162.
          IM-0109-4007-0001  M66/t3     1.22  0   2665.   1168.   2617.   2698.   1102.   1240.
          IM-0114-2088-0001  M68/t3     5.89  0   2113.   1162.   1988.   2258.   1108.   1267.
          IM-0114-2088-0001  M68/t3     2.76  0   2084.   1536.   2033.   2139.   1454.   1577.
          IM-0114-2088-0001  M68/t3     2.40  0   2124.   1975.   2037.   2171.   1867.   2063.
          IM-0114-2088-0001  M68/t3     2.19  0   2212.   1350.   2139.   2288.   1314.   1388.
          IM-0114-2088-0001  M68/t3     1.76  0   2139.   1730.   2057.   2219.   1666.   1802.
          IM-0114-4090-0001  M68/t3     2.31  0   2083.   1627.   1875.   2269.   1398.   1802.
          IM-0114-4090-0001  M68/t3     0.93  0   1863.   1543.   1843.   1878.   1459.   1611.
          IM-0114-4090-0001  M68/t3     0.77  0   2334.   1419.   2216.   2445.   1382.   1442.
          IM-0114-4090-0001  M68/t3     0.03  0   2189.   1093.   2146.   2216.   1020.   1172.
          IM-0116-1094-0001  M69/t3     1.20  0   2323.   1923.   2237.   2381.   1861.   2024.
          IM-0116-1094-0001  M69/t3     0.81  0   1898.   1458.   1865.   1930.   1427.   1511.
          IM-0116-1094-0001  M69/t3     0.04  0   1563.   1742.   1534.   1595.   1723.   1765.
          IM-0116-2093-0001  M69/t3     6.49  0   2416.   2572.   2360.   2488.   2525.   2590.
          IM-0116-2093-0001  M69/t3     5.86  0   2208.   2485.   2163.   2287.   2448.   2540.
          IM-0116-2093-0001  M69/t3     2.59  0   1726.   1857.   1708.   1747.   1831.   1902.
          IM-0116-2093-0001  M69/t3     0.64  0   2186.   2267.   2131.   2239.   2211.   2354.
          IM-0116-3096-0001  M69/t3     8.04  0   2228.   1788.   2163.   2268.   1752.   1827.
          IM-0116-3096-0001  M69/t3     4.50  0   2405.   2803.   2375.   2429.   2766.   2839.
          IM-0116-3096-0001  M69/t3     1.57  0   1984.   1119.   1907.   2063.   1081.   1209.
          IM-0116-3096-0001  M69/t3     0.42  0   1815.   2279.   1805.   1828.   2224.   2355.
          IM-0116-3096-0001  M69/t3     0.42  0   1822.   1628.   1789.   1888.   1542.   1695.
          IM-0116-3096-0001  M69/t3     0.23  0   2227.   1371.   2187.   2284.   1306.   1411.
          IM-0116-3096-0001  M69/t3     0.21  0   2403.   1336.   2349.   2463.   1256.   1407.
          IM-0116-4095-0001  M69/t3    31.29  1   2221.   2412.   2137.   2281.   2332.   2474.
          IM-0116-4095-0001  M69/t3     5.86  1   2028.   1921.   2016.   2040.   1840.   1983.
          IM-0116-4095-0001  M69/t3     4.03  0   2139.   2185.   2111.   2159.   2125.   2282.
          IM-0116-4095-0001  M69/t3     3.51  0   2353.   2686.   2297.   2410.   2513.   2832.
          IM-0116-4095-0001  M69/t3     0.51  0   1678.   1005.   1630.   1732.    965.   1034.
          IM-0116-4095-0001  M69/t3     0.43  0   1743.   1503.   1712.   1768.   1437.   1559.
          IM-0116-4095-0001  M69/t3     0.27  0   1992.    716.   1940.   2067.    697.    732.
          IM-0116-4095-0001  M69/t3     0.25  0   2133.   1539.   2076.   2169.   1495.   1612.
          IM-0116-4095-0001  M69/t3     0.04  0   2375.   1127.   2278.   2459.   1079.   1194.
          IM-0118-3028-0001  M70/t3     4.79  0   2197.   1782.   2183.   2208.   1754.   1821.
          IM-0118-3028-0001  M70/t3     0.50  0   1758.   1166.   1732.   1782.   1113.   1228.
          IM-0118-3028-0001  M70/t3     0.23  0   2032.   2080.   2000.   2082.   2001.   2168.
          IM-0120-1001-0001  M71/t3    10.00  0   3189.   1227.   3176.   3208.   1197.   1276.
          IM-0120-1001-0001  M71/t3     6.44  0   2294.   2196.   2270.   2324.   2166.   2219.
          IM-0120-2002-0001  M71/t3     3.82  0   2616.   1286.   2573.   2677.   1250.   1355.
          IM-0120-2002-0001  M71/t3     0.91  0   2435.   2102.   2406.   2461.   2020.   2167.
          IM-0120-2002-0001  M71/t3     0.57  0   2424.   2785.   2383.   2446.   2721.   2818.
          IM-0120-2002-0001  M71/t3     0.53  0   1987.   1840.   1973.   1998.   1826.   1859.
          IM-0120-2002-0001  M71/t3     0.36  0   3107.   1271.   3042.   3166.   1233.   1317.
          IM-0120-2002-0001  M71/t3     0.06  0   2209.   1832.   2098.   2288.   1781.   1872.
          IM-0120-4003-0001  M71/t3     5.29  0   1977.   1853.   1936.   2045.   1831.   1871.
          IM-0121-4064-0001  M72/t3     0.31  0   2588.   1909.   2561.   2619.   1838.   1996.
          IM-0121-4064-0001  M72/t3     0.21  0   3187.   1946.   3149.   3212.   1879.   2025.
          IM-0124-2125-0001  M73/t3     0.07  0   1035.   3049.    972.   1084.   3030.   3067.
          IM-0126-2014-0001  M74/t3     0.24  0   1668.   1711.   1611.   1743.   1686.   1729.
          IM-0133-1096-0001  M75/t3     0.09  0   2733.   2818.   2657.   2827.   2791.   2874.
          IM-0133-1096-0001  M75/t3     0.03  0   2733.   2435.   2673.   2798.   2394.   2462.
          IM-0133-3099-0001  M75/t3     2.57  0   2353.   1549.   2299.   2397.   1490.   1617.
          IM-0140-2062-0001  M77/t3     0.74  0   2237.   1295.   2197.   2263.   1260.   1349.
          IM-0143-1081-0001  M78/t3     4.95  0   1959.   1447.   1909.   1993.   1372.   1493.
          IM-0143-1081-0001  M78/t3     3.87  0   2406.   1184.   2379.   2430.   1164.   1201.
          IM-0143-1081-0001  M78/t3     2.32  0   1915.   2172.   1901.   1928.   2118.   2204.
          IM-0143-1081-0001  M78/t3     1.69  0   2167.   1144.   2136.   2207.   1097.   1190.
          IM-0143-1081-0001  M78/t3     1.66  0   2407.   2474.   2352.   2485.   2406.   2592.
          IM-0143-1081-0001  M78/t3     1.62  0   1699.   1353.   1616.   1757.   1323.   1386.
          IM-0143-1081-0001  M78/t3     1.22  0   1590.   1984.   1546.   1622.   1968.   2003.
          IM-0143-1081-0001  M78/t3     1.00  0   1963.   1224.   1892.   2057.   1092.   1341.
          IM-0143-1081-0001  M78/t3     0.02  2   2257.   2201.   2165.   2360.   2114.   2275.
          IM-0143-2082-0001  M78/t3     5.31  0   1873.   1614.   1831.   1952.   1533.   1694.
          IM-0143-2082-0001  M78/t3     4.59  0   2030.   1864.   1983.   2125.   1796.   1962.
          IM-0143-2082-0001  M78/t3     4.16  0   1918.   1339.   1830.   2070.   1243.   1405.
          IM-0143-2082-0001  M78/t3     0.31  0   2104.   1043.   2041.   2164.    993.   1080.
          IM-0143-2082-0001  M78/t3     0.08  0   1670.   1084.   1627.   1708.   1050.   1134.
          IM-0143-3084-0001  M78/t3     8.10  0   1781.   1614.   1743.   1841.   1591.   1664.
          IM-0143-3084-0001  M78/t3     1.54  0   1957.   1457.   1933.   1984.   1416.   1507.
          IM-0143-3084-0001  M78/t3     1.27  0   2238.   2194.   2217.   2272.   2180.   2206.
          IM-0143-3084-0001  M78/t3     0.78  0   2176.   1655.   2125.   2232.   1624.   1687.
          IM-0143-3084-0001  M78/t3     0.48  0   2003.   1802.   1975.   2044.   1740.   1839.
          IM-0143-3084-0001  M78/t3     0.35  0   1637.   1032.   1562.   1715.    970.   1070.
          IM-0143-3084-0001  M78/t3     0.15  0   1983.   1046.   1919.   2041.   1007.   1092.
          IM-0143-3084-0001  M78/t3     0.07  0   1679.   1452.   1430.   1839.   1384.   1515.
          IM-0143-4083-0001  M78/t3    39.72  0   2320.   2970.   2300.   2371.   2924.   3011.
          IM-0143-4083-0001  M78/t3     6.23  0   1858.   1624.   1799.   1912.   1499.   1713.
          IM-0143-4083-0001  M78/t3     6.13  0   1961.   2825.   1921.   2026.   2751.   2862.
          IM-0143-4083-0001  M78/t3     4.31  0   1557.   1992.   1525.   1608.   1917.   2059.
          IM-0143-4083-0001  M78/t3     2.33  0   2131.   1021.   2062.   2223.    928.   1081.
          IM-0143-4083-0001  M78/t3     2.08  0   1747.   1807.   1734.   1757.   1741.   1856.
          IM-0143-4083-0001  M78/t3     1.37  0   2087.   1764.   1984.   2160.   1657.   1880.
          IM-0143-4083-0001  M78/t3     0.86  2   1538.   1581.   1517.   1557.   1544.   1612.
          IM-0143-4083-0001  M78/t3     0.41  0   1938.   1405.   1884.   1998.   1320.   1439.
          IM-0145-1065-0001  M79/t3    22.23  0   1926.   2311.   1909.   1943.   2299.   2323.
          IM-0145-1065-0001  M79/t3    12.24  1   2298.   2262.   2147.   2480.   2218.   2368.
          IM-0145-3068-0001  M79/t3    45.22  1   1843.   1887.   1785.   1942.   1848.   1962.
          IM-0145-3068-0001  M79/t3     6.02  0   1609.   1663.   1531.   1636.   1644.   1684.
          IM-0145-3068-0001  M79/t3     4.52  1   2028.   2116.   1951.   2107.   1963.   2277.
          IM-0145-3068-0001  M79/t3     0.70  0   2232.   2561.   2189.   2267.   2466.   2648.
          IM-0145-3068-0001  M79/t3     0.33  0   1617.    844.   1547.   1662.    797.    889.
          IM-0145-3068-0001  M79/t3     0.11  0   2072.   1302.   2043.   2102.   1229.   1383.
          IM-0145-4067-0001  M79/t3     1.42  0   2035.   1194.   2003.   2051.   1127.   1291.
          IM-0145-4067-0001  M79/t3     0.86  0   2035.   1547.   1963.   2088.   1535.   1556.
          IM-0145-4067-0001  M79/t3     0.70  0   1654.   1609.   1575.   1742.   1513.   1683.
          IM-0145-4067-0001  M79/t3     0.64  0   1370.    986.   1302.   1439.    925.   1062.
          IM-0145-4067-0001  M79/t3     0.14  2   1839.   1800.   1808.   1865.   1697.   1901.
          IM-0145-4067-0001  M79/t3     0.00  0   1329.   1218.   1274.   1399.   1197.   1250.
          IM-0150-2002-0001  M80/t2    33.88  0   2167.   1429.   2142.   2193.   1387.   1500.
          IM-0150-2002-0001  M80/t2     3.46  2   1961.   1433.   1888.   2011.   1370.   1495.
          IM-0150-2002-0001  M80/t2     0.71  0   1657.   1740.   1615.   1700.   1710.   1763.
          IM-0150-2002-0001  M80/t2     0.29  0   2220.   2108.   2129.   2283.   1980.   2245.
          IM-0150-3003-0001  M80/t2     5.46  0   1838.   1257.   1767.   1893.   1224.   1316.
          IM-0150-3003-0001  M80/t2     2.47  2   2148.    777.   2019.   2269.    743.    842.
          IM-0150-3003-0001  M80/t2     1.74  0   1806.   1690.   1769.   1835.   1653.   1717.
          IM-0150-3003-0001  M80/t2     0.16  0   2082.   1177.   2029.   2151.   1069.   1286.
          IM-0150-4004-0001  M80/t2     1.21  0   2153.   1009.   2107.   2236.    949.   1060.
          IM-0150-4004-0001  M80/t2     0.89  0   2083.   1501.   1986.   2145.   1420.   1566.
          IM-0150-4004-0001  M80/t2     0.19  0   1606.   1403.   1573.   1656.   1343.   1469.
          IM-0200-2014-0001  M80/t2     9.00  0   2173.   1402.   2103.   2270.   1280.   1471.
          IM-0200-2014-0001  M80/t2     4.93  2   1970.   1439.   1906.   2001.   1404.   1492.
          IM-0200-2014-0001  M80/t2     2.62  0   2236.   2061.   2163.   2327.   1940.   2155.
          IM-0200-2014-0001  M80/t2     2.06  0   2247.   1689.   2191.   2301.   1642.   1722.
          IM-0200-2014-0001  M80/t2     1.76  0   2099.   1103.   2080.   2117.   1041.   1167.
          IM-0200-3015-0001  M80/t2    12.53  0   2194.    880.   2145.   2243.    857.    921.
          IM-0200-3015-0001  M80/t2     2.12  0   1849.   1916.   1818.   1905.   1845.   1972.
          IM-0200-3015-0001  M80/t2     0.94  0   1705.   1622.   1668.   1733.   1559.   1668.
          IM-0200-3015-0001  M80/t2     0.09  0   2030.   1893.   1980.   2095.   1877.   1909.
          IM-0200-4016-0001  M80/t2     4.20  0   2032.   1726.   1993.   2064.   1693.   1763.
          IM-0200-4016-0001  M80/t2     0.71  0   1767.   1656.   1727.   1821.   1606.   1730.
          IM-0200-4016-0001  M80/t2     0.24  0   1938.   1908.   1879.   2021.   1882.   1942.
          IM-0153-1012-0001  M82/t3     1.55  0   2042.   1216.   2029.   2060.   1161.   1268.
          IM-0153-1012-0001  M82/t3     1.15  1   2132.   2454.   2099.   2177.   2446.   2462.
          IM-0153-1012-0001  M82/t3     0.07  0   1648.   1973.   1603.   1713.   1940.   2018.
          IM-0153-2013-0001  M82/t3     4.80  0   2292.   2591.   2223.   2349.   2506.   2659.
          IM-0153-3015-0001  M82/t3     1.39  0   2335.   1231.   2298.   2361.   1135.   1284.
          IM-0153-3015-0001  M82/t3     0.14  0   1939.   1476.   1896.   2005.   1374.   1550.
          IM-0153-4014-0001  M82/t3     1.45  0   1543.   2182.   1487.   1621.   2145.   2222.
          IM-0153-4014-0001  M82/t3     1.26  0   2400.   1678.   2293.   2467.   1655.   1707.
          IM-0153-4014-0001  M82/t3     0.93  0   1867.   1864.   1803.   1937.   1827.   1906.
          IM-0158-1042-0001  M85/t3     0.16  0   1459.   1594.   1395.   1523.   1544.   1628.
          IM-0158-1042-0001  M85/t3     0.12  1   1531.   1739.   1471.   1597.   1690.   1782.
          IM-0158-1042-0001  M85/t3     0.06  0   1370.   1963.   1322.   1412.   1880.   2037.
          IM-0158-4045-0001  M85/t3     0.12  0   1368.   1174.   1292.   1460.   1149.   1198.
          IM-0162-1001-0001  M86/t3    11.36  0   1811.   1087.   1789.   1826.   1057.   1146.
          IM-0162-1001-0001  M86/t3     5.32  0   2178.   1784.   2138.   2216.   1727.   1823.
          IM-0162-1001-0001  M86/t3     0.31  0   2410.    363.   2364.   2441.    292.    433.
          IM-0162-1001-0001  M86/t3     0.09  0   1025.   1562.    961.   1094.   1517.   1608.
          IM-0162-4004-0001  M86/t3     0.21  0   1782.    733.   1705.   1857.    695.    763.
          IM-0162-5005-0001  M86/t3     2.83  0   2111.   1756.   2078.   2150.   1698.   1799.
          IM-0165-1057-0001  M87/t3     6.51  0   2787.   1713.   2749.   2823.   1686.   1729.
          IM-0165-2059-0001  M87/t3    17.88  0   3055.   3192.   3039.   3073.   3172.   3208.
          IM-0165-2059-0001  M87/t3    12.64  0   3110.   2921.   3043.   3165.   2888.   2992.
          IM-0165-3062-0001  M87/t3     3.87  0   2603.   1662.   2562.   2639.   1610.   1703.
          IM-0165-3062-0001  M87/t3     1.74  0   2998.   1663.   2942.   3048.   1628.   1703.
          IM-0165-4061-0001  M87/t3    10.04  0   2643.   2234.   2615.   2682.   2212.   2249.
          IM-0165-4061-0001  M87/t3     3.56  0   2526.    934.   2478.   2555.    858.    970.
          IM-0165-5058-0001  M87/t3     8.26  0   2810.   1754.   2765.   2861.   1714.   1791.
          IM-0165-6060-0001  M87/t3     4.79  0   2944.   2102.   2906.   3001.   2058.   2208.
          IM-0165-6060-0001  M87/t3     1.52  0   3034.    823.   3018.   3060.    795.    863.
          IM-0165-6060-0001  M87/t3     1.30  0   2566.   2358.   2527.   2604.   2325.   2383.
          IM-0165-6060-0001  M87/t3     0.50  0   3022.   2439.   2974.   3078.   2379.   2477.
          IM-0165-6060-0001  M87/t3     0.23  0   2884.   1380.   2799.   2941.   1356.   1405.
          IM-0213-2002-0001  M88/t2     1.37  0   1469.   1047.   1440.   1489.   1033.   1066.
          IM-0213-2002-0001  M88/t2     0.11  0   1859.   1619.   1797.   1910.   1541.   1685.
          IM-0213-3003-0001  M88/t2     4.52  0   1632.   1187.   1551.   1676.   1154.   1220.
          IM-0168-1057-0001  M89/t3    12.91  0   2379.   1491.   2304.   2471.   1399.   1545.
          IM-0168-1057-0001  M89/t3     2.46  0   2253.   1283.   2210.   2298.   1236.   1345.
          IM-0168-1057-0001  M89/t3     2.42  2   1945.   1859.   1894.   2013.   1803.   1957.
          IM-0168-1057-0001  M89/t3     0.28  0   1923.   1569.   1883.   1967.   1448.   1643.
          IM-0168-2056-0001  M89/t3     1.90  0   2208.   1225.   2167.   2262.   1213.   1241.
          IM-0168-2056-0001  M89/t3     1.84  0   2467.   2326.   2447.   2489.   2294.   2356.
          IM-0168-2056-0001  M89/t3     1.46  0   2338.   2166.   2243.   2466.   2004.   2300.
          IM-0168-2056-0001  M89/t3     0.37  0   2387.   1012.   2285.   2438.    914.   1081.
          IM-0168-3060-0001  M89/t3     6.46  0   1980.   1191.   1952.   2002.   1157.   1259.
          IM-0168-3060-0001  M89/t3     2.43  0   1820.   1659.   1711.   1920.   1576.   1816.
          IM-0168-3060-0001  M89/t3     2.31  0   2290.    724.   2084.   2426.    603.    875.
          IM-0168-3060-0001  M89/t3     1.26  0   2366.   1023.   2298.   2424.    996.   1067.
          IM-0168-3060-0001  M89/t3     0.68  0   1759.   1338.   1700.   1831.   1259.   1370.
          IM-0168-3060-0001  M89/t3     0.00  0   2364.   3065.   2279.   2449.   3028.   3096.
          IM-0168-4059-0001  M89/t3    13.26  0   2431.    628.   2385.   2483.    551.    667.
          IM-0168-4059-0001  M89/t3     1.86  0   2427.   1211.   2386.   2476.   1139.   1258.
          IM-0168-4059-0001  M89/t3     1.69  0   2363.   2107.   2319.   2407.   2045.   2145.
          IM-0168-4059-0001  M89/t3     1.60  2   1792.   1705.   1717.   1869.   1632.   1787.
          IM-0168-4059-0001  M89/t3     1.59  0   2276.   1333.   2239.   2302.   1289.   1375.
          IM-0168-4059-0001  M89/t3     0.99  0   2012.   1642.   1884.   2157.   1568.   1738.
          IM-0168-4059-0001  M89/t3     0.21  0   2135.    709.   2043.   2206.    669.    743.
          IM-0168-4059-0001  M89/t3     0.20  0   1878.   2328.   1847.   1935.   2275.   2400.
          IM-0168-6058-0001  M89/t3    10.86  0   2388.   2101.   2333.   2462.   2029.   2253.
          IM-0168-6058-0001  M89/t3     8.00  0   2126.   1075.   2062.   2182.    985.   1151.
          IM-0168-6058-0001  M89/t3     6.75  0   2383.   2463.   2324.   2429.   2362.   2545.
          IM-0168-6058-0001  M89/t3     6.52  0   2416.   1854.   2353.   2487.   1780.   1918.
          IM-0168-6058-0001  M89/t3     0.61  0   1867.   1768.   1830.   1902.   1734.   1799.
          IM-0168-6058-0001  M89/t3     0.39  0   2187.   1878.   2162.   2202.   1820.   1943.
          IM-0171-3044-0001  M90/t3     4.65  0   2452.    602.   2413.   2479.    568.    659.
          IM-0171-3044-0001  M90/t3     2.53  0   1294.    602.   1200.   1354.    528.    715.
          IM-0171-3044-0001  M90/t3     1.97  0   1984.   2624.   1905.   2027.   2563.   2653.
          IM-0171-3044-0001  M90/t3     1.59  0   1664.    457.   1628.   1702.    370.    539.
          IM-0171-4043-0001  M90/t3     3.48  0   1647.    789.   1624.   1674.    769.    802.
          IM-0171-4043-0001  M90/t3     0.75  0   1162.   1812.   1102.   1208.   1741.   1871.
                        IM1  M91/t3     5.05  0   1876.   1942.   1844.   1890.   1900.   1990.
                        IM1  M91/t3     4.46  0   2021.   1887.   1987.   2058.   1848.   1952.
                        IM1  M91/t3     2.91  0   2241.   2017.   2207.   2272.   1982.   2045.
                        IM1  M91/t3     2.33  0   1882.   2151.   1814.   1928.   2102.   2229.
                        IM1  M91/t3     1.94  0   1607.   2194.   1558.   1682.   2158.   2250.
                        IM1  M91/t3     1.89  0   1707.   1927.   1668.   1768.   1903.   1957.
                        IM1  M91/t3     0.34  0   1684.   2345.   1650.   1723.   2325.   2374.
                        IM2  M91/t3     4.98  0   2090.   1004.   2051.   2128.    967.   1061.
                        IM2  M91/t3     4.10  0   2095.   1544.   2046.   2135.   1501.   1567.
                        IM2  M91/t3     3.81  0   1559.   1214.   1515.   1585.   1187.   1243.
                        IM2  M91/t3     2.08  0   1939.   1143.   1813.   2018.   1063.   1248.
                        IM2  M91/t3     1.92  0   2091.   1259.   2058.   2132.   1207.   1320.
                        IM2  M91/t3     0.89  0   1431.   1650.   1406.   1459.   1622.   1664.
                        IM2  M91/t3     0.59  0   2180.    555.   2162.   2199.    504.    600.
                        IM3  M91/t3     4.47  0    337.    990.    309.    363.    978.   1005.
                        IM3  M91/t3     2.37  0    216.   1761.    185.    239.   1719.   1787.
                        IM3  M91/t3     2.15  0    786.   1634.    751.    830.   1602.   1665.
                        IM3  M91/t3     1.26  0    232.    889.    205.    273.    850.    921.
                        IM3  M91/t3     1.09  0    721.   1343.    673.    768.   1275.   1384.
                        IM3  M91/t3     0.98  0    662.    962.    619.    705.    924.   1006.
                        IM3  M91/t3     0.36  0    555.   1484.    530.    573.   1436.   1547.
                        IM4  M91/t3     2.24  0    256.   1300.    225.    278.   1264.   1359.
                        IM4  M91/t3     1.84  0    116.   1788.     89.    145.   1767.   1811.
                        IM4  M91/t3     1.67  0    759.   1383.    728.    781.   1337.   1424.
                        IM4  M91/t3     1.22  0     92.   1544.     68.    111.   1504.   1595.
                        IM4  M91/t3     1.03  0    276.   2549.    255.    303.   2509.   2589.
                        IM4  M91/t3     0.98  0    890.   2036.    809.    962.   2003.   2082.
                        IM4  M91/t3     0.63  0    452.   2117.    425.    479.   2071.   2143.
                        IM4  M91/t3     0.49  0    100.   2447.     67.    123.   2402.   2503.
                        IM5  M91/t3     5.26  0    117.   1788.     89.    145.   1767.   1811.
                        IM5  M91/t3     2.00  0    276.   2547.    256.    304.   2509.   2589.
                        IM5  M91/t3     0.99  0    906.   2027.    864.    963.   2003.   2053.
                        IM6  M91/t3     3.03  0    336.    990.    309.    363.    978.   1005.
                        IM7  M91/t3     0.95  0   1967.   1168.   1904.   2018.   1109.   1247.
                        IM8  M91/t3     5.86  0   2021.   1872.   1988.   2058.   1848.   1897.
                        IM8  M91/t3     2.92  0   2243.   2015.   2207.   2272.   1982.   2045.
                        IM1  M92/t3     3.10  0   1876.   1675.   1850.   1904.   1658.   1695.
                        IM1  M92/t3     1.27  0   1742.   1914.   1706.   1801.   1873.   1950.
                        IM1  M92/t3     0.02  0   2107.   1812.   2026.   2199.   1730.   1876.
                        IM1  M92/t3     0.00  0   2058.   1638.   2003.   2102.   1576.   1692.
                        IM2  M92/t3     0.29  0    493.   1612.    457.    516.   1592.   1633.
                        IM2  M92/t3     0.00  0    613.   1455.    558.    672.   1442.   1473.
                        IM3  M92/t3     0.08  1    642.   2068.    616.    684.   2047.   2104.
                        IM3  M92/t3     0.01  0    133.   2664.     92.    156.   2645.   2699.
                        IM3  M92/t3     0.00  0    722.   1962.    683.    767.   1904.   2010.
                        IM4  M92/t3     0.01  0   2280.   2761.   2251.   2327.   2742.   2791.
